{"d": [[-56, -59, 979, -45, -14, 1051, -44, -30, 1022, -78, -14, 955, -102, -3, 1028, -104, -39, 1020, -55, -10, 970, -55, -83, 1003, 23, -68, 993, 2, -42, 1062, -67, -50, 1011, -33, -29, 1027, 51, -45, 1050, -22, -45, 1032, -10, 11, 999, -64, 10, 998, -79, 82, 930, -148, 65, 1003, -85, 61, 1017, -53, 17, 1007, -49, -88, 945, -58, -43, 1029, -62, -56, 968, -78, -38, 940, -51, -13, 1009, -81, -78, 1037, -58, -73, 995, -50, -41, 952, -40, -17, 1000, -78, -41, 1001],
	 [-37, -33, 1035, -18, 0, 982, -59, 29, 998, -77, 29, 1042, -77, -40, 962, -45, -107, 982, -36, -106, 1025, -31, -122, 980, -76, -35, 976, 11, -72, 1030, 61, -37, 981, 21, -28, 975, -69, -32, 986, -37, 16, 977, -16, -46, 999, -22, 4, 1038, -33, -46, 1003, -93, 5, 1018, -68, -66, 987, -74, -15, 1024, -71, -60, 967, -64, -76, 958, -11, -45, 1003, 0, -41, 1034, -9, -78, 985, -37, -118, 975, -33, -111, 953, -9, -88, 1004, -9, -100, 977, -3, -105, 1005],
	 [-73, 13, 1087, -64, 24, 976, -95, 4, 976, -59, -71, 1000, -64, -72, 1048, -27, -58, 970, -78, -57, 986, 7, -8, 1007, 5, -79, 1033, 4, -67, 1034, -49, -40, 944, -38, 12, 912, -51, -7, 1005, -38, 63, 991, -84, 75, 936, -93, 98, 943, -120, 58, 984, -122, 11, 979, -76, 29, 1036, -85, 33, 973, -121, -13, 973, -81, 7, 933, -57, -88, 928, -44, -78, 987, -50, -77, 945, -35, -44, 1053, -52, -50, 1044, -25, -29, 995, 0, -32, 1054, -24, -44, 985],
	 [-74, 10, 1068, -44, 34, 1021, -61, -52, 1010, -13, -99, 946, -68, -98, 990, -8, -38, 1006, -15, -51, 1011, -32, -29, 1048, 61, 7, 994, 13, -21, 1050, -12, -38, 992, 27, -36, 970, 45, -10, 985, -31, 5, 1023, -25, 58, 1001, -62, 59, 1017, -94, 66, 991, -81, 32, 979, -48, -15, 988, -38, -53, 987, -55, -136, 883, 4, -49, 959, -6, -94, 958, 6, -84, 978, 4, -49, 972, 42, -6, 1012, 14, -45, 1031, 33, 2, 982, 24, 2, 1042, -12, 19, 999],
	 [-46, 7, 1003, -52, 67, 994, -13, -56, 984, -19, -135, 975, 19, -57, 1034, 3, -96, 996, 35, -43, 1046, 23, -54, 1027, 60, -58, 1042, 35, -17, 1035, 11, 12, 1003, 64, 59, 998, 46, 42, 1025, 20, 78, 1008, -48, 96, 982, -86, 107, 991, -98, 60, 972, -61, 89, 988, -23, 24, 1042, -14, -10, 1046, -31, -28, 943, -1, -65, 984, -4, -81, 997, 30, -32, 1078, 10, -47, 1000, -14, -54, 990, 19, -21, 977, 21, -34, 1001, 0, -28, 1018, -4, -41, 1014],
	 [-96, 38, 1079, -66, 53, 955, -79, -25, 1031, -21, -60, 1011, -22, -57, 1016, -87, -68, 1005, -19, -22, 980, 1, -18, 1029, 32, -66, 1015, 2, -32, 929, -55, -8, 924, -35, 26, 937, -24, -13, 962, -3, -29, 1022, -5, 20, 1087, -25, 34, 1015, -33, 16, 1025, -54, 8, 1008, -66, -9, 1015, -33, -13, 1004, -3, -68, 1027, 1, -33, 982, -22, -92, 997, 0, -43, 983, 4, -9, 1028, -2, -27, 989, 9, -25, 1069, -53, -137, 1033, 5, -73, 957, -25, -95, 964],
	 [-84, 82, 1114, -55, -1, 1018, -55, -36, 1044, -73, -37, 1018, -35, -68, 1008, -58, -63, 1054, -12, -41, 1018, -5, -80, 1003, -21, -98, 1003, -53, -77, 978, 7, -16, 1065, 8, -15, 974, 5, 9, 992, -10, -23, 1026, -15, 31, 1054, -17, 21, 992, -51, -11, 1031, -84, -7, 994, -88, 6, 1002, -87, -16, 1027, -76, -35, 949, -63, -80, 978, 15, -65, 1058, 37, -34, 1046, 26, -58, 1045, -16, -46, 1039, -6, -82, 996, -21, -80, 1023, -10, -77, 1002, -5, -61, 995],
	 [-82, 25, 1026, -19, 67, 1012, 36, -1, 1010, -31, -87, 1058, 3, -105, 1011, -26, -69, 1028, -47, -21, 1017, -103, -18, 998, -27, 14, 984, -28, -45, 929, -19, 28, 939, -20, -21, 1059, 54, -22, 989, 25, 42, 1034, -16, 62, 1031, -51, 48, 968, -91, 53, 992, -147, 40, 974, -125, 77, 979, -98, 38, 996, -55, 33, 1042, -60, -13, 1021, -39, -10, 1018, -56, -60, 1028, -46, -96, 1024, -68, -101, 958, -68, -105, 934, -24, -129, 978, -34, -52, 1004, -20, -43, 1028],
	 [-92, 48, 1098, -82, 22, 1015, -115, -57, 940, -87, -103, 965, -77, -59, 1020, -16, -72, 1003, -45, -87, 984, -2, -69, 998, -5, -64, 1005, -76, -51, 979, -74, -18, 926, -49, -27, 1004, 3, -6, 1021, -6, 19, 1037, 27, -5, 1034, -23, 22, 1010, -36, 50, 977, -50, 25, 1007, -52, 30, 1042, -70, 27, 998, -73, -30, 1002, -69, -94, 940, -84, -141, 993, -76, -45, 985, -43, -68, 958, -30, -128, 1040, -31, -83, 1008, -60, -91, 1051, -30, -72, 979, -65, -70, 1031],
	 [-66, -3, 1136, -72, -27, 991, -87, -59, 968, -104, -114, 966, -60, -93, 1023, 15, -82, 1060, 32, -67, 1080, -12, -93, 1064, 3, -50, 983, -38, -16, 954, -13, -33, 967, -37, -111, 958, -26, -14, 1066, -89, -30, 994, -91, 20, 963, -93, 17, 1003, -56, -12, 995, -57, -47, 981, -57, -44, 919, 16, -80, 1021, 31, -103, 1032, 6, -117, 998, 39, -101, 1052, -13, -94, 1005, -35, -79, 1015, -39, -87, 991, -18, -63, 1008, -38, -42, 999, -14, -23, 1026, -15, -32, 1001],
	 [-98, 35, 1119, -55, 10, 994, -97, -71, 1003, -78, -31, 955, -70, -52, 1000, -54, -30, 1043, -27, -135, 995, 19, -76, 1011, 63, -55, 1058, 65, -5, 1072, 14, -61, 1013, -18, -5, 983, -53, -18, 969, -32, 54, 958, -102, 46, 967, -45, -20, 977, -2, -60, 984, 5, -4, 1014, -51, 8, 1016, -41, -44, 1044, -18, -64, 1040, -21, -79, 997, -41, -96, 1013, -12, -91, 966, -37, -79, 1024, -20, -103, 964, -20, -47, 1016, -21, -57, 993, -25, -53, 1025, -16, -33, 1017],
	 [-103, 6, 1024, -76, -30, 977, -90, -19, 1039, -62, -74, 1080, -52, -42, 1036, -63, -65, 1045, -10, -44, 1044, -14, 5, 998, -23, -44, 978, -49, 15, 959, -3, 27, 1100, -11, -46, 1076, -53, 112, 1060, -43, 67, 1068, -65, 86, 1011, -70, 18, 984, -118, 52, 948, -112, 36, 1068, -64, -6, 937, -35, -1, 939, -20, -27, 1017, -18, -54, 1018, -27, -43, 1025, -20, -30, 997, -1, -6, 1016, -32, -29, 1003, -5, 3, 1030, -27, -30, 1016, -47, -34, 999, -4, -14, 987],
	 [-144, 103, 1078, -99, 51, 1026, -113, -76, 950, -60, -101, 997, -32, -71, 1063, 35, -34, 1006, 13, -58, 1032, 27, -72, 976, -22, -35, 1002, -4, -14, 994, -37, -18, 1024, -6, -6, 989, -49, 71, 1052, -69, 38, 1049, -66, 22, 985, -78, -35, 999, -99, 14, 953, -61, -81, 995, 16, -59, 1016, 11, -58, 1045, -16, -41, 1053, -29, -73, 1033, -7, -75, 1046, -24, -68, 954, -20, -40, 1009, -33, -33, 997, -24, -23, 980, -35, -24, 973, -35, -28, 996, -40, -29, 1009],
	 [-39, -4, 1080, -9, -29, 906, -123, -33, 975, -92, -77, 1014, -19, -30, 987, 134, 17, 1031, 77, -20, 1067, -4, -7, 1020, -10, 81, 843, -86, 58, 989, -128, -1, 896, -45, 43, 1049, -72, 5, 932, 104, -177, 988, 130, -109, 1060, -15, -5, 933, -119, -113, 1023, -65, -37, 1014, -119, -56, 963, -34, -3, 1021, -35, 31, 1029, -60, 15, 1023, -25, 41, 1002, -74, -29, 1141, -26, 75, 984, -60, -27, 1032, -27, 9, 961, -25, 3, 1016, -30, 25, 975, -68, -20, 1023],
	 [-76, 94, 1066, -57, 69, 1051, -87, -85, 1006, -64, -107, 980, -63, -77, 1011, 44, -16, 1058, 10, -112, 987, 17, -76, 1018, 45, -120, 1013, 30, -51, 993, 30, 43, 1038, -20, 0, 1017, -9, 0, 999, -46, -7, 921, -91, 12, 948, -22, 30, 1045, 13, -10, 958, 6, -14, 953, 20, -33, 1011, 97, -24, 1079, 28, -38, 1054, 53, -23, 1055, 48, -47, 1026, 38, -94, 1045, -18, -58, 1008, 28, -82, 1012, -9, -22, 1014, -9, -39, 996, 13, -52, 997, -26, -41, 990],
	 [-39, 35, 1011, -78, -4, 1015, -1, -54, 1031, -36, -92, 1044, -26, -91, 1054, -42, -106, 975, -1, -95, 1018, 1, -157, 942, 34, -93, 1002, 52, -109, 1000, 37, -103, 1051, 68, -72, 1106, 58, 18, 1049, -21, 71, 1105, -24, 8, 1034, -39, 76, 973, -78, 68, 935, -37, -3, 935, -26, -35, 1107, -54, -45, 1098, -29, -43, 1036, -42, -127, 1009, -46, -115, 1033, 45, -132, 980, 5, -87, 944, 10, -49, 1017, -18, -30, 992, -19, -98, 960, -47, -67, 997, -33, -52, 964],
	 [-66, 23, 1007, -85, 17, 997, -98, -58, 923, -123, -59, 858, -58, -84, 983, 40, -63, 1000, 38, -83, 994, 56, 20, 1040, 28, -25, 1039, -1, 7, 1038, 13, -16, 984, -31, 71, 1029, 49, -78, 1068, 11, -16, 1089, -79, 4, 965, -92, -6, 950, -86, 28, 967, -13, -36, 1019, -64, 37, 951, -58, 72, 1040, -38, 29, 932, -56, -47, 952, -57, -6, 1023, -18, 6, 1039, -17, -15, 1010, -56, -30, 1030, -52, 20, 1001, -51, -18, 975, -44, -6, 971, -43, -36, 1008],
	 [-45, -28, 931, -53, -44, 963, -44, -36, 987, -47, -102, 993, -68, -81, 996, -24, -67, 1045, -4, -29, 1039, 36, -21, 1099, -6, -41, 932, -4, -10, 874, -77, -59, 941, 2, -107, 996, 0, -84, 1024, 12, -35, 1001, -1, 4, 1009, -23, 20, 985, -51, -34, 1027, -18, 29, 959, -101, 23, 1051, -35, -36, 987, -2, -7, 991, -26, -58, 1091, -68, -43, 1004, -79, -48, 934, -69, -38, 1017, -69, -58, 1034, -1, -52, 998, -7, -15, 1058, -32, 6, 989, -23, -6, 1016],
	 [-85, 53, 914, -69, 6, 1023, -97, -68, 951, -114, -94, 1042, -46, -73, 1058, -24, -86, 1013, -24, -128, 1077, -30, -36, 979, -11, -78, 933, 27, -105, 980, 57, 3, 990, -2, -78, 1013, 13, -66, 1009, 17, -82, 1040, -44, -48, 1024, -91, 50, 1047, -92, 52, 1034, -86, 32, 1030, -57, -36, 1000, -52, -61, 999, -38, -90, 998, -36, -46, 991, -98, -49, 883, -89, -73, 958, -49, -73, 1035, -56, -59, 1076, -30, -56, 1062, -39, -24, 1021, -43, -15, 1042, -48, -19, 1045],
	 [-36, -30, 1016, -54, -55, 949, -64, -33, 1069, -59, -103, 1005, -116, -71, 1044, -66, -80, 948, -16, -29, 983, -13, -6, 1003, 40, 11, 965, 15, -9, 1048, -15, 14, 1031, -41, -56, 1014, -34, -82, 1034, 11, -113, 994, 30, -65, 1060, -59, -55, 1053, -52, -87, 995, -48, -75, 1018, -70, -26, 1014, -71, -48, 1007, -34, -80, 897, 13, -80, 945, 30, -66, 1044, 34, -115, 1047, -11, -61, 1024, 0, -73, 1042, -31, -121, 983, -17, -65, 1000, -23, -88, 981, -20, -69, 946],
	 [-66, -32, 929, -88, 31, 999, -51, -25, 1023, -62, -38, 1085, -55, -77, 1067, -37, -88, 1015, -22, -79, 1013, -10, -77, 898, 22, -74, 942, 47, -61, 957, -25, -5, 965, -15, -48, 985, 36, -26, 933, -53, -60, 1065, -115, -14, 1088, -28, 67, 1014, -53, 81, 1035, -53, 46, 958, -30, -13, 974, -12, -71, 1001, -15, 19, 1057, -59, 1, 993, -43, -49, 1021, -40, -52, 955, -47, -101, 1008, -38, -62, 1028, -19, -20, 1016, -9, -53, 1034, -22, -75, 982, -10, -50, 1024],
	 [-82, 8, 1024, -88, 34, 977, -83, -33, 1048, -108, -74, 996, -102, -101, 1031, -58, -137, 988, 7, -106, 938, 2, -47, 953, 12, -57, 1063, 32, -68, 963, 47, 22, 1048, 8, 29, 1026, -14, -32, 977, -52, 43, 942, -23, 26, 1015, -58, -73, 971, -66, -56, 1003, -64, -122, 981, -72, -59, 927, -60, -47, 991, -51, -31, 1045, -60, -11, 1033, -44, -80, 990, -25, -108, 1016, -31, -81, 1059, -53, -133, 981, -57, -96, 970, -58, -60, 1003, -50, -59, 978, -37, -67, 1026],
	 [-113, 56, 1015, -116, -18, 1036, -112, -113, 988, -74, -88, 1001, -82, -97, 937, -51, -91, 990, -11, 0, 1026, -9, -51, 1003, -38, -73, 964, -10, 9, 1034, -40, -58, 1054, 8, 26, 1075, 30, 8, 1079, -3, 33, 1059, -25, 59, 1021, -110, 11, 963, -94, 4, 1048, -51, -78, 999, 6, 3, 953, -3, -71, 970, -14, -50, 956, -32, -91, 917, -38, -63, 1092, -79, -58, 992, -46, -98, 1079, -71, -107, 965, -47, -119, 1001, -55, -87, 985, -47, -73, 992, -42, -93, 1011],
	 [-76, 77, 1074, -57, 29, 1065, -93, -41, 1035, -107, -134, 1014, -88, -166, 977, -32, -94, 949, -22, -63, 985, 29, -14, 1009, -19, -28, 989, 45, -50, 1015, 18, -17, 1082, 12, 0, 1037, 8, 11, 1087, -24, -4, 953, -116, 15, 1016, -96, 6, 990, -81, -3, 1001, -74, -26, 933, -62, -12, 984, -17, -12, 1065, 15, -12, 1030, -40, -22, 1008, -29, -39, 988, -59, -64, 1022, -57, -76, 1016, -16, -117, 1047, -14, -106, 1013, -31, -59, 1013, -57, -59, 1003, -48, -49, 1022],
	 [-88, 79, 1124, -114, 17, 1008, -93, 20, 1022, -69, -17, 982, -32, -134, 1015, -13, -192, 1008, 4, -125, 1001, -2, -111, 956, 51, -49, 1054, 29, -57, 975, -45, -23, 955, -28, -146, 912, -4, -79, 911, -9, -73, 982, -15, -18, 998, -77, -57, 982, -61, -37, 1002, -72, -80, 996, -4, -69, 1076, 15, -68, 1052, 4, -54, 996, -83, -94, 959, -10, -114, 1000, 9, -90, 1000, -45, -105, 1029, -41, -70, 1016, -65, -58, 968, -39, -48, 1029, -53, -80, 994, -38, -55, 1008],
	 [-71, -38, 1064, -92, -39, 959, -105, -140, 1012, -42, -92, 997, -58, -85, 1037, 12, -50, 1019, -23, -92, 1006, -6, -74, 992, -25, -85, 1008, 5, -99, 979, -3, -36, 978, -18, -29, 1037, 76, -135, 1037, -21, -107, 1059, 6, -48, 1005, -55, 2, 966, -90, -37, 1020, -78, -21, 1004, -70, -23, 1058, -12, -35, 970, -33, -126, 980, 18, -25, 967, -32, -67, 1049, 25, -81, 1072, 22, -120, 1032, -11, -96, 997, -18, -93, 981, -31, -96, 993, -15, -99, 955, -23, -79, 985],
	 [-102, -15, 1059, -71, 34, 1008, -52, -35, 990, -53, -65, 1010, -48, -115, 948, -24, -67, 961, -21, -90, 1017, 11, -54, 1013, -32, -33, 1058, 51, -105, 1027, -9, -75, 993, -40, -78, 999, -47, -19, 993, -24, 53, 920, -55, 51, 964, -27, 51, 979, -12, 47, 980, -62, 21, 991, -33, 3, 1091, -45, -97, 1012, -36, -103, 1031, 24, -92, 893, -17, -101, 991, 0, -97, 915, -33, -87, 965, -32, -69, 1045, -43, -63, 1027, -18, -66, 1006, -16, -31, 1017, -17, -14, 1030],
	 [-60, 1, 1043, -102, -66, 1013, -117, -61, 1004, -74, -92, 977, -54, -33, 1013, -29, -63, 990, -33, -102, 1052, -10, -18, 1025, 24, -26, 992, 22, -24, 968, -18, 8, 976, -103, 28, 936, -85, 21, 926, -121, 24, 944, -80, 0, 967, -114, 31, 1052, -38, 50, 978, -21, 35, 983, -13, -44, 1131, 35, -17, 1020, -37, -24, 999, -51, -59, 969, -54, -38, 978, -20, -67, 1032, -37, -61, 974, -26, -8, 1045, -20, -36, 1043, -25, -43, 1025, -36, -65, 1010, -9, -65, 1000],
	 [-96, 53, 1092, -129, -14, 1010, -100, -90, 1015, -73, -138, 1079, -50, -142, 1046, -14, -95, 1061, -65, -62, 980, -10, -118, 1012, 40, -43, 1046, 70, -58, 991, -6, -3, 955, -63, 37, 923, -91, 84, 940, -139, 68, 998, -101, 76, 1004, -24, 30, 945, -31, -38, 1029, -6, -136, 1066, -5, -127, 928, -65, -135, 961, -83, -69, 956, -72, -129, 983, -52, -85, 1017, -37, -70, 986, -32, -51, 998, -38, -74, 1039, -34, -52, 973, -34, -62, 968, -9, -49, 1005, -25, -51, 986],
	 [-103, 19, 1001, -64, 17, 928, -95, -47, 1000, -94, -131, 1013, -67, -165, 1001, 26, -119, 1041, -4, -89, 981, -19, -9, 1016, -21, 32, 1004, 16, -32, 991, 15, -106, 891, -5, -76, 995, -47, -16, 989, -97, 17, 998, -91, -39, 1003, -72, -78, 1008, -23, -56, 1010, -37, -77, 1035, -22, -93, 941, -62, -122, 971, -53, -135, 1008, -59, -97, 966, -48, -147, 1028, -29, -103, 1017, -47, -107, 984, -47, -44, 1004, -52, -74, 994, -49, -74, 1008, -61, -63, 1005, -37, -58, 992],
	 [-53, 38, 950, -99, 54, 1024, -161, 4, 996, -143, -121, 994, -95, -99, 1015, -50, -113, 1040, -15, -111, 1025, -8, -88, 1002, 26, -32, 919, 29, 49, 1010, -37, -5, 1060, -16, -8, 1065, -5, -63, 1023, -50, 0, 1002, -21, -17, 1050, -90, 35, 1023, -83, 54, 1060, -94, 37, 1031, -77, 42, 931, -20, -43, 1064, 6, -75, 983, -33, -44, 921, -24, -92, 1012, -54, -40, 1035, -70, -7, 1046, -50, -49, 1049, -8, -57, 1045, -33, -42, 1025, -40, -47, 1002, -45, -38, 1005],
	 [-102, 50, 930, -137, -16, 972, -50, -53, 994, -50, -141, 1046, 15, -124, 1061, 28, -24, 1034, 56, -21, 1055, 28, -79, 971, 8, -16, 944, -44, 59, 1028, -62, 2, 1109, 52, -62, 1001, -76, 15, 931, -60, -21, 968, -37, -75, 1034, -40, -49, 924, -76, -55, 960, -50, -36, 1043, 0, -33, 1014, -15, -28, 1029, 0, -22, 1031, 8, -77, 970, 12, -42, 1015, -7, -53, 1024, -14, -115, 984, -21, -141, 974, -13, -121, 988, -15, -95, 980, -11, -67, 992, -24, -72, 1007],
	 [-70, 131, 1039, -110, 40, 1069, -107, -66, 1001, -96, -152, 958, -66, -125, 964, 34, -114, 1013, 15, -62, 959, 7, -71, 1056, 25, -83, 954, -17, 3, 936, -3, -17, 940, -71, 11, 923, -23, -11, 960, -31, -52, 993, -82, -61, 900, -40, -56, 903, -46, -7, 1052, 41, 24, 1054, 10, -58, 1008, -22, -160, 1036, -30, -104, 1007, -67, -137, 1018, -38, -129, 985, -19, -101, 1004, -41, -115, 965, -35, -105, 981, -24, -89, 975, -25, -70, 997, -26, -55, 1006, -32, -68, 992],
	 [-77, 3, 977, -44, -8, 1046, -57, -32, 1058, -53, -72, 1036, -7, -92, 1028, -14, -126, 927, 57, -109, 1008, 68, -114, 964, 49, -148, 940, 57, -112, 1014, 7, -55, 1070, -30, -124, 1029, -87, -50, 1008, -78, -52, 1009, -65, -79, 917, -100, -62, 922, -58, -31, 961, -57, -88, 1005, -53, -149, 1009, -36, -112, 1037, -10, -108, 1060, -45, -93, 1066, -26, -111, 994, -42, -100, 976, -45, -105, 969, -43, -86, 1002, -28, -99, 1014, -24, -108, 1000, -62, -117, 990, -65, -75, 1030],
	 [-67, 0, 986, -72, -60, 956, -116, -67, 1006, -93, -127, 1001, -66, -82, 958, -16, -50, 1025, 11, -80, 1010, -38, -37, 1020, -19, -82, 1043, 9, -16, 1102, 88, -70, 1036, 49, -47, 888, -35, -12, 933, -30, -5, 955, -97, -78, 1074, -102, -49, 1085, -83, -94, 1077, -27, -105, 925, -85, -73, 853, -69, -89, 990, -44, -142, 1024, -72, -96, 967, -60, -94, 935, -33, -106, 950, 16, -46, 965, -23, -43, 1026, -51, -31, 1076, -44, -25, 1049, -42, -47, 1038, -27, -22, 1047],
	 [-84, 5, 1051, -52, 25, 1092, -43, -83, 987, -74, -166, 930, -102, -147, 976, -53, -134, 933, -8, -48, 1006, -28, -99, 1037, -1, -58, 1047, -1, -68, 970, 30, -58, 1056, 10, -28, 1107, 13, -38, 1064, -42, 36, 1024, -89, -12, 996, -102, -85, 974, -43, -72, 995, -91, -94, 929, -111, -82, 994, -63, -107, 990, -41, -58, 993, -58, -46, 1016, 5, -52, 1001, -38, -92, 995, -106, -87, 988, -6, -3, 1018, -26, -53, 1024, -55, -41, 982, -60, -73, 1013, -51, -61, 1032],
	 [-93, 99, 1146, -95, 11, 1086, -114, -44, 1110, -142, 0, 1023, -94, -67, 997, -24, -37, 1038, 13, -9, 1063, 47, 18, 1092, 52, 7, 1063, 47, -117, 1027, 27, -42, 1068, 36, 28, 1026, -85, 19, 996, -83, -10, 977, -14, -64, 1034, -20, -33, 1056, -45, -30, 1061, -44, -43, 975, -27, -34, 1037, -33, -52, 1066, -6, -78, 980, -16, -84, 1019, -47, -112, 1063, -41, -137, 981, 2, -98, 954, -6, -74, 992, -14, -84, 976, -32, -69, 989, -41, -80, 998, -38, -70, 1001],
	 [-77, 51, 1055, -72, -5, 1070, -103, -57, 849, -102, -133, 1011, -74, -166, 1044, -20, -104, 944, -6, -117, 950, 38, -5, 960, -15, -46, 957, -2, -81, 992, -73, -40, 999, -73, 24, 969, -70, 71, 1008, -61, -42, 994, -29, 17, 895, -41, -25, 1012, -43, 30, 978, -66, 34, 973, -31, -6, 1069, -2, -40, 946, -57, -93, 996, -30, -87, 1025, -43, -110, 1005, -43, -81, 986, -47, -110, 1044, -39, -70, 981, -39, -62, 1005, -19, -54, 970, -22, -69, 1001, -10, -50, 1021],
	 [-38, 47, 961, -60, -47, 1017, -75, -107, 1083, -78, -149, 1025, -79, -138, 947, -77, -173, 947, -26, -125, 972, -29, -133, 1018, 28, -28, 992, 11, 1, 1036, -19, -79, 950, 2, -35, 986, -4, -109, 1005, -55, -112, 1065, -58, -40, 1033, -81, -1, 1069, -86, -28, 1055, -74, -95, 974, -51, -66, 1029, -46, -61, 987, -23, -60, 1031, -70, -83, 1020, -50, -99, 1002, -43, -95, 967, -38, -107, 997, -52, -116, 976, -30, -89, 1027, -33, -66, 1007, -45, -92, 980, -44, -107, 973],
	 [-74, 30, 1026, -79, 19, 1031, -105, -43, 1033, -113, -110, 1031, -109, -117, 1011, -44, -114, 1014, -8, -131, 965, 21, -107, 1006, -6, -136, 987, -1, -124, 978, 2, -133, 941, 13, -88, 939, -5, -40, 1015, -29, -16, 1032, -21, -34, 1036, -3, -40, 1052, -16, -40, 1029, -36, -53, 1048, -85, -66, 981, -13, -97, 930, -72, -97, 964, -53, -92, 974, -49, -70, 965, -34, -56, 989, -26, -80, 1036, -27, -84, 989, 7, -86, 1043, -18, -83, 1032, -9, -65, 1000, -10, -72, 999],
	 [-129, 42, 1092, -32, -13, 955, -81, -106, 937, -101, -132, 989, -66, -109, 983, -28, -78, 990, 52, -87, 1050, 65, -141, 986, 43, -49, 1004, -17, -32, 1064, -58, 28, 962, 10, 12, 924, 19, 79, 1006, -11, 16, 1085, -29, -27, 1022, -80, -47, 1012, -105, -67, 1016, -55, -101, 1007, -6, -134, 1062, 1, -109, 981, 7, -109, 970, 3, -105, 1012, -17, -140, 979, -51, -164, 1017, 28, -92, 1005, 0, -45, 1001, -8, -92, 983, -10, -86, 996, -3, -75, 988, 0, -76, 982],
	 [-85, 64, 1034, -110, 28, 974, -95, -82, 940, -111, -216, 989, -25, -157, 975, -41, -94, 1034, -2, -135, 1026, 75, -106, 948, 49, -104, 989, -51, -35, 968, -23, 0, 993, -24, 84, 1022, -40, -34, 1001, -92, -95, 944, -101, -9, 1029, -33, -93, 993, -23, -84, 988, -51, -155, 978, -37, -127, 947, -91, -103, 1008, -59, -38, 1018, -69, -66, 1019, -56, -100, 983, -46, -67, 995, -34, -68, 1012, -65, -48, 1034, -58, -69, 1021, -16, -72, 1030, -26, -67, 1000, -65, -49, 1031],
	 [-112, 75, 1080, -128, 38, 1034, -131, -3, 1025, -104, -50, 1014, 9, -80, 1035, -35, -111, 1033, -4, -89, 1028, 18, -96, 948, -29, -153, 1022, -18, -120, 1020, 45, -89, 1169, 51, 4, 1136, -63, -23, 1029, -99, -102, 1018, -15, -7, 947, -72, -81, 945, -123, -88, 998, -60, -111, 993, -76, -127, 997, -50, -79, 983, -103, -112, 1000, -27, -112, 1054, -7, -73, 968, -19, -43, 963, -32, -58, 985, -28, -83, 1007, -12, -101, 992, -8, -83, 1017, -7, -74, 1018, -14, -76, 1007],
	 [-85, -30, 955, -8, -37, 908, -75, -91, 1029, -38, -142, 1050, -36, -105, 983, 4, -66, 979, 97, -61, 1020, 50, -83, 986, 40, -111, 958, -21, -56, 961, -7, -44, 1036, -12, -19, 1111, -4, 73, 1000, -26, 78, 1008, 20, -14, 1068, 28, -128, 1027, -7, -185, 896, 6, -49, 998, 8, -66, 1043, -83, -35, 1206, -47, -28, 1032, -18, -81, 1057, 22, -107, 1065, 32, -40, 992, -12, -60, 1001, 8, -31, 980, 0, -23, 1006, 0, -28, 976, -7, -49, 1032, -5, -52, 1023],
	 [12, -97, 949, -76, -55, 940, -41, -91, 944, -107, -144, 1100, -33, -43, 1059, 31, -112, 1050, 29, -159, 1023, 59, -122, 1004, 19, -76, 1044, 9, 64, 1171, 27, -9, 1186, -10, -14, 1046, -20, 26, 973, -59, -10, 1080, -14, -107, 1024, 12, -85, 1083, 11, -96, 1012, 4, -152, 1064, 17, -131, 999, -18, -103, 1029, 18, -118, 985, 0, -156, 1036, 35, -104, 965, -12, -36, 1004, -16, -81, 1032, -4, -56, 996, -17, -86, 1013, -5, -62, 1024, 6, -42, 1021, -8, -39, 1032],
	 [-110, 54, 988, -37, -8, 1110, -88, -96, 1065, -39, -118, 1024, -18, -88, 1011, 73, -10, 965, 50, -70, 924, -17, -67, 954, 12, -21, 960, 7, -48, 952, 42, -14, 883, 13, -26, 971, 14, 32, 1032, -13, 53, 1016, -41, 15, 991, -35, -11, 1058, -2, -19, 1020, 23, -3, 945, 22, -64, 1015, 60, -40, 1050, 44, -71, 1063, 46, -46, 1059, 6, -78, 968, 39, -60, 987, -14, -92, 1021, 26, -55, 1005, 17, -46, 1046, 15, -66, 1024, 8, -59, 1001, 7, -50, 1011],
	 [0, -41, 918, -58, -36, 1016, -53, -73, 1038, -37, -121, 1012, -16, -150, 967, 84, -99, 1021, 65, -21, 1024, 95, 57, 1039, 146, 50, 1029, 124, 20, 976, 103, -1, 1075, -23, -40, 1059, -86, 13, 1020, -38, -24, 980, -45, -85, 1015, -20, -77, 1053, -24, -63, 942, -20, -27, 980, -48, -9, 965, -31, -6, 1099, 22, -85, 1056, 29, -92, 966, -27, -83, 1026, -32, -49, 1013, 7, -70, 1026, 14, -64, 980, 10, -61, 1002, 17, -26, 1024, -13, -61, 999, -2, -40, 1004],
	 [-104, 108, 1007, -97, -83, 885, -30, -83, 1043, -14, -68, 1014, 48, -120, 952, 82, -91, 991, 77, -71, 1022, 22, -17, 992, 52, 55, 1028, 41, 52, 1031, 76, 55, 1075, 54, 56, 1112, -43, -9, 929, -76, 20, 980, -13, 29, 1041, -7, -6, 1039, 68, -40, 1027, 102, 20, 1015, -11, -25, 1034, -8, -31, 1069, 7, -34, 1072, -35, -42, 1029, -62, -18, 1035, -26, -18, 1034, -26, 5, 1054, -28, -26, 1013, -18, -47, 1009, -22, -44, 1008, -30, -36, 1028, -30, -41, 1004],
	 [-28, 27, 1028, -93, 60, 1038, -49, -12, 985, -55, -165, 1052, -57, -182, 1044, 32, -120, 950, 40, -101, 1035, 98, -56, 865, 39, -57, 941, 69, 10, 1012, 53, 12, 955, -38, 40, 1004, -74, 83, 990, -67, -1, 1077, -15, -36, 942, -22, -40, 1004, 0, -62, 1065, 8, -41, 1034, -43, -63, 1089, 35, 7, 1051, -22, -98, 1091, 34, -44, 993, 15, -65, 1006, 9, -21, 1003, -18, 4, 1049, 8, -30, 1002, 5, -6, 994, -9, -13, 1059, -25, -10, 1016, -10, -14, 977],
	 [-32, -58, 1040, -95, -85, 973, -79, -135, 974, -111, -120, 1078, -37, -180, 952, 0, -105, 936, -11, -100, 983, 31, -79, 1031, 58, -42, 957, 72, 17, 902, 25, 24, 940, 20, 26, 957, -5, -12, 988, -33, 20, 967, -45, -28, 961, -5, -65, 1049, -9, -52, 1128, 28, -74, 919, 14, -77, 1022, 2, -124, 962, -22, -177, 959, -30, -109, 1061, -42, -82, 967, -37, -147, 1025, -25, -88, 980, -52, -47, 1010, -54, -76, 992, -57, -77, 1009, -37, -52, 996, -52, -67, 1023]],
 "v": [[-25, -52, 1044, 4, -72, 970, -12, -92, 973, -28, -82, 1073, 8, -78, 1052, -45, -63, 1011, -58, 40, 964, -41, -67, 871, -108, -77, 1017, -53, 31, 1028, -25, -81, 1008, -58, -64, 965, -69, 23, 945, -99, -28, 1009, -50, 41, 985, -29, -36, 1011, -49, -60, 1046, -69, -72, 923, -76, -96, 1127, -64, -79, 931, -90, -105, 1029, -87, -50, 996, -55, -134, 999, -50, -89, 1011, -46, -88, 1043, -49, -88, 973, -47, -70, 974, -45, -48, 1020, -28, -48, 1075, -30, -28, 999],
	 [7, -20, 1124, 6, -73, 1052, -8, -130, 1039, -37, -76, 1044, -15, -52, 999, -29, 12, 1018, -31, 27, 980, -114, -13, 921, -45, 52, 1057, -65, 19, 1042, -36, 18, 1022, -25, 18, 1039, -24, 54, 961, -91, 19, 963, -70, 10, 963, -65, -20, 1002, -53, -82, 993, -91, -23, 1014, -68, -10, 1013, -54, -83, 1037, -47, -76, 963, -54, -28, 1025, -69, -2, 1028, -65, -36, 997, -47, -33, 1018, -46, -35, 1004, -42, -27, 997, -41, -46, 972, -38, -46, 1003, -52, -37, 1000],
	 [-23, -66, 1058, -30, -122, 974, -5, -65, 1000, 4, -103, 1022, -33, -10, 913, -78, -5, 1028, -89, 82, 987, -61, 4, 1033, -59, 50, 1037, -49, 15, 1053, -2, 38, 996, -33, 14, 977, -90, 12, 1049, -56, 15, 985, -75, -44, 1045, -53, -47, 1040, -54, -54, 1001, -53, -81, 1067, -62, -71, 966, -48, -56, 995, -52, -47, 959, -37, -70, 945, -45, -35, 985, -59, -30, 1005, -71, -46, 1027, -50, -38, 998, -45, -34, 995, -71, -28, 1029, -39, -23, 991, -47, -46, 973],
	 [-81, -121, 1132, -14, -140, 1050, 28, -77, 982, -35, -110, 976, -79, 4, 1026, -64, 70, 1031, -103, -3, 985, -105, 21, 956, -90, 44, 1002, -75, 16, 1097, -43, 77, 1007, -51, 52, 994, -64, 0, 875, -74, -20, 1012, 9, -15, 991, -69, -29, 1097, -66, -77, 918, -93, -55, 1059, -80, -111, 1082, -24, -141, 1035, -47, -84, 952, -99, -79, 954, -73, -39, 960, -53, -38, 989, -41, -40, 1004, -36, -11, 1036, -47, -58, 997, -59, -42, 1010, -75, -39, 1020, -76, -35, 992],
	 [-32, -84, 970, -16, -185, 997, 22, -127, 1058, -33, -84, 1006, -59, -26, 973, -118, -82, 912, -57, 17, 945, -45, -56, 1038, -27, -45, 1056, -80, -4, 1024, -54, 37, 1018, -12, 47, 1027, -52, 10, 999, -92, -15, 1015, -69, -2, 1030, -63, -59, 1023, -68, -81, 1003, -53, -87, 996, -64, -75, 1010, -36, -71, 968, -26, -58, 1017, -28, -44, 1009, -52, -65, 1011, -39, -44, 989, -58, -52, 1006, -42, -14, 997, -35, -51, 1016, -53, -45, 1002, -61, -41, 1019, -39, -38, 985],
	 [-19, -136, 1078, -23, -66, 1046, -47, -130, 963, -20, -47, 1008, -73, -53, 1051, -94, 1, 1021, -50, -43, 962, -85, 56, 1050, -46, 36, 1029, -20, 8, 1015, 10, 14, 1040, 13, -38, 1039, -39, -52, 987, -87, -54, 975, -49, -12, 1040, -96, -21, 1005, -81, -22, 1006, -38, -105, 1092, -55, -70, 978, -47, -31, 988, -53, -65, 1005, -23, -47, 994, -47, -43, 1003, -39, -55, 1059, -27, -65, 1027, -23, -47, 1006, -46, -37, 1031, -43, -64, 1011, -41, -42, 1042, -43, -45, 1019],
	 [35, -52, 1121, 80, -138, 996, 66, -146, 949, -30, -128, 910, -51, -44, 895, -2, 74, 911, -38, 3, 964, -43, -12, 973, -11, 49, 916, -34, -8, 1000, -4, 52, 1028, -15, -9, 1007, -84, -8, 973, -77, -34, 1001, -64, -69, 930, -35, -105, 985, -43, -63, 1001, -57, -51, 1009, -87, -84, 1038, -81, -118, 1002, -76, -100, 993, -62, -77, 965, -37, -83, 955, -66, -66, 966, -73, -71, 991, -77, -78, 979, -66, -42, 997, -69, -44, 1045, -64, -31, 1038, -51, -24, 1013],
	 [6, -89, 1030, 46, -170, 1025, 32, -143, 962, 1, -111, 961, -7, -42, 999, -32, 51, 1077, -52, 6, 995, -95, -41, 943, -42, 8, 994, -38, -13, 1090, 4, -5, 986, -14, 14, 996, -34, -32, 1022, -59, -50, 1093, -31, -75, 935, -26, -65, 1049, -22, -73, 960, -43, -88, 992, -48, -67, 994, -32, -79, 987, -49, -63, 1015, -26, -67, 975, -6, -69, 963, -66, -71, 997, -23, -88, 1015, -7, -54, 963, -39, -83, 960, -14, -58, 972, -32, -86, 1004, -29, -77, 1005],
	 [5, -20, 1103, -4, -111, 1045, -15, -100, 1022, -9, -35, 965, -28, -27, 967, -63, 14, 952, 0, 2, 1034, -69, 52, 958, -68, -10, 925, -52, 20, 997, 12, 41, 1044, 32, 42, 990, -1, -30, 1089, 37, -57, 1028, -36, -83, 1022, -31, -118, 916, -28, -110, 1006, -69, -88, 998, -60, -115, 1031, -35, -93, 1012, -18, -94, 1012, -34, -89, 992, -22, -91, 1031, 0, -72, 964, -13, -68, 973, -21, -73, 973, -12, -67, 993, -15, -66, 963, -35, -55, 991, -56, -53, 1013],
	 [-27, -123, 1045, 5, -160, 1027, -8, -149, 995, -2, -119, 897, -39, -19, 980, -94, 30, 994, -42, -4, 1075, -68, -35, 954, -56, -1, 1066, -53, 30, 990, -61, 36, 1021, -36, 23, 1039, -34, -44, 1022, -27, -63, 992, -42, -146, 979, -23, -149, 938, -37, -157, 910, -44, -146, 941, -61, -100, 1027, -55, -63, 1016, -55, -72, 1024, -50, -58, 1014, -20, -60, 1003, -53, -85, 997, -47, -53, 1010, -47, -60, 1003, -49, -50, 1010, -55, -49, 1008, -41, -70, 1018, -33, -58, 985],
	 [14, -137, 1015, 21, -200, 1034, -33, -85, 954, 7, -38, 1008, -66, 16, 915, -11, 45, 989, -14, 17, 1049, -48, 30, 1068, -56, 31, 987, -42, 29, 1023, -13, 45, 974, -38, -1, 1065, -33, -41, 1039, -57, -41, 1026, -61, -105, 991, -17, -99, 959, -51, -86, 951, -82, -123, 967, -39, -127, 1015, -37, -82, 968, -46, -69, 1007, -57, -63, 1018, -43, -46, 990, -40, -71, 995, -26, -79, 1020, -16, -72, 1008, -26, -58, 984, -33, -65, 1003, -25, -63, 1000, -25, -48, 999],
	 [-9, -85, 1021, 47, -217, 956, -2, -87, 1026, -27, -112, 874, -78, -104, 993, -88, -99, 944, -48, -36, 994, -56, -7, 983, -30, -11, 997, 24, 35, 1043, 20, 14, 1069, -18, -88, 1051, -34, -107, 1034, -58, -50, 924, -16, -111, 1098, -54, -90, 1037, -60, -80, 1020, -68, -99, 1021, -52, -58, 982, -44, -38, 958, -46, -50, 993, -21, -44, 1005, 1, -35, 990, -16, -40, 985, -25, -43, 994, -24, -45, 1009, -32, -42, 1009, -53, -43, 1036, -35, -39, 1028, -28, -15, 988],
	 [-1, -36, 1097, 56, -90, 1063, 30, -71, 1037, 19, -75, 981, -40, -48, 1007, -41, -35, 1038, -45, -30, 955, -29, -3, 998, 0, 53, 1053, 7, 4, 1043, 60, 20, 989, 43, 0, 1014, -26, -13, 928, -23, -63, 935, -22, -131, 928, -10, -89, 993, 16, -65, 965, 24, -46, 1014, -33, -51, 977, -31, -43, 1002, -23, -89, 1017, -4, -66, 995, -9, -55, 1030, -21, -26, 985, -11, -49, 1000, -14, -43, 988, -44, -50, 1002, -25, -60, 983, -22, -36, 1018, -47, -23, 998],
	 [-15, -43, 1108, 34, -106, 1015, 86, -163, 974, 76, -100, 915, 32, -5, 1024, 0, -1, 1007, -28, -53, 958, -25, 56, 967, -88, -16, 928, -43, -5, 966, 36, 79, 998, 50, 70, 1011, -62, 0, 1042, -30, -20, 930, -47, -50, 1075, -37, -79, 972, -43, -76, 991, -74, -94, 960, -49, -84, 980, -21, -40, 1031, -10, -17, 976, -32, -48, 1010, -33, -33, 1019, -13, -37, 981, -16, -58, 1020, -23, -45, 1003, -26, -46, 1025, -6, -46, 996, -23, -32, 998, -21, -38, 988],
	 [60, -125, 1024, 1, -95, 1035, 12, -50, 986, 38, -21, 1001, 37, -27, 965, -84, 9, 1092, -113, -48, 954, -58, 56, 890, -25, -3, 1020, 9, 34, 993, 70, 86, 969, 99, 51, 1041, 23, -28, 1077, 31, -10, 927, -86, -74, 1029, -36, -64, 1045, -29, -86, 1030, 0, -68, 996, -50, -94, 1006, -35, -62, 986, -9, -55, 999, -20, -53, 991, -11, -20, 1011, -7, -24, 1004, -7, -40, 969, 23, -21, 1000, -4, -52, 984, -12, -45, 1017, -37, -34, 1008, -20, -43, 990],
	 [44, -81, 1039, 43, -124, 1039, 50, -147, 980, 53, -42, 1041, -37, -76, 914, -49, -53, 943, -19, -112, 904, 12, 8, 1015, 18, 73, 1033, -18, 58, 1027, 26, 87, 1033, 34, 6, 986, -14, -28, 1010, -19, -24, 981, -59, -85, 878, -72, -23, 1111, -29, -85, 1039, -26, -124, 966, -44, -112, 1007, -15, -63, 1015, 25, -37, 1037, -22, -19, 1008, -34, -24, 1019, 0, -22, 1022, -7, -13, 984, -14, -34, 983, -12, -24, 987, -31, -29, 1000, -20, -27, 1003, -3, -49, 986],
	 [72, -121, 1051, 45, -148, 1006, 35, -65, 1024, -37, 41, 1003, -35, 34, 962, -30, 60, 895, -96, -7, 971, -37, -1, 972, 1, 54, 979, 54, 19, 1066, 71, 98, 1049, 94, 8, 1071, 21, 2, 1061, -19, 22, 970, -10, 28, 973, -15, -14, 1039, -58, -58, 1065, -8, -104, 1024, 1, -57, 1009, 3, -64, 984, -8, -29, 973, -2, -34, 995, -12, -19, 982, -25, -36, 978, -36, -41, 991, -17, -24, 999, -8, -29, 1006, -8, -24, 1015, -24, -17, 1024, -20, -21, 1007],
	 [46, -133, 1044, -22, -90, 978, -18, 26, 998, -28, 46, 1016, -39, 51, 1096, -31, 76, 1001, -80, 53, 1026, -58, 62, 1022, -55, 48, 953, 16, 46, 993, 66, 48, 977, -29, -43, 975, -30, -65, 964, -79, -65, 989, -39, -84, 1006, -37, -68, 954, -68, -90, 1014, -70, -63, 1010, -38, -26, 1012, -40, -55, 1022, -59, -39, 1038, -58, -20, 1027, -27, -54, 1014, -31, -45, 1010, -30, -33, 1030, -19, -51, 1031, -33, -45, 1002, -36, -70, 996, 1, -52, 991, -39, -65, 1016],
	 [91, -100, 1026, 76, -109, 1021, 46, -62, 975, 20, -73, 1025, 0, -7, 1098, -11, -2, 1043, 19, 45, 1138, 21, 51, 1020, -48, 28, 923, -41, 39, 990, 41, 95, 1005, 66, 65, 981, 18, 11, 975, -24, 2, 1029, -2, 35, 935, 30, -16, 1003, 51, -42, 980, 29, -51, 1022, -23, -49, 1025, -18, -37, 1009, -22, -35, 984, 0, -24, 985, -18, -18, 984, -35, -20, 1014, -25, -63, 994, -23, -41, 1039, -25, -23, 1048, -7, -39, 1004, -26, -48, 1001, 0, -47, 971],
	 [7, -94, 1069, 24, -66, 1018, -22, -57, 1055, 35, -56, 997, 11, -7, 986, -41, -59, 1001, 31, -7, 1092, -1, -17, 1023, -39, -22, 1016, -37, 17, 1034, 22, 87, 1016, 9, 36, 989, -12, -76, 998, -6, -37, 987, -39, -67, 952, -45, -104, 952, -36, -159, 963, -15, -129, 1021, -52, -151, 988, -41, -57, 989, -21, -93, 993, -26, -74, 981, 3, -57, 1002, -26, -66, 999, -14, -85, 1000, -6, -74, 1027, -20, -63, 983, -27, -84, 991, -13, -77, 1011, -13, -83, 992],
	 [35, -125, 1092, 10, -89, 988, -14, -115, 994, -11, -29, 999, 9, -98, 1041, -34, -64, 983, -69, -28, 1003, -38, 48, 984, -53, 9, 996, -5, -24, 1037, 2, -37, 1008, 36, -117, 951, 54, -20, 1016, -6, 22, 1024, 4, 22, 1084, 6, -53, 1072, -20, -83, 979, 7, -166, 980, 0, -101, 958, -4, -122, 1045, -19, -79, 995, -13, -33, 1000, -11, -57, 986, 6, -32, 1010, -11, -64, 1015, -15, -78, 996, -14, -65, 995, -16, -84, 1018, -1, -60, 1009, -1, -87, 1005],
	 [-14, -158, 1053, 31, -91, 996, -52, -31, 1032, -60, -38, 992, -47, 54, 942, -31, 7, 989, -15, 10, 1052, -45, 0, 1036, -18, -13, 976, 0, 81, 973, 40, 45, 1018, 20, -40, 963, 33, -56, 974, -12, -80, 1006, -17, -46, 1071, 4, -68, 994, -13, -103, 946, -6, -141, 1055, -6, -93, 982, -26, -55, 988, -11, -30, 1011, 0, -14, 1006, 5, -34, 1019, -15, -27, 988, 4, -59, 997, 27, -61, 1026, 0, -80, 1019, 0, -75, 991, -2, -59, 1010, 4, -39, 1015],
	 [71, -152, 1060, 60, -183, 1026, 72, -121, 980, -38, -73, 1004, -71, -56, 985, -42, -54, 992, -40, 24, 1008, -54, 8, 951, 9, 60, 966, 43, 122, 1023, 10, 100, 1021, -26, 11, 1040, -2, -96, 1016, -22, -79, 983, -62, -63, 1014, -69, -98, 1030, -46, -72, 977, -46, -53, 987, 0, -13, 1004, -16, -28, 1001, -20, -36, 1011, -12, -32, 997, -19, -47, 1023, -9, -52, 1032, -10, -47, 1027, -2, -49, 1002, -22, -60, 988, -17, -76, 991, -7, -52, 967, -15, -60, 990],
	 [89, -108, 1100, 42, -138, 1012, 49, -95, 949, -62, -145, 990, -104, -105, 1007, -35, -64, 956, -61, -40, 976, -56, -22, 1001, -24, 106, 1015, 11, -9, 1091, 36, 99, 993, 11, 77, 969, -44, 9, 1030, -19, -54, 961, -91, -38, 937, -57, -86, 1005, -29, -118, 1027, -49, -124, 1072, -35, -107, 983, -9, -74, 997, -8, -71, 978, -17, -58, 964, -5, -59, 1027, 0, -41, 996, 0, -73, 971, 16, -73, 1000, 21, -41, 1014, 7, -75, 1000, -4, -53, 1010, 12, -10, 992],
	 [-11, -126, 1072, -7, -126, 993, 65, -103, 939, -58, -91, 955, 20, -126, 964, -1, -45, 1075, -67, 2, 1023, -70, 39, 959, -67, 80, 1022, -13, 39, 1044, -23, 86, 1047, -8, 13, 1023, -44, -101, 1016, -31, -99, 1101, -73, -74, 941, -15, -66, 986, -26, -69, 1009, -76, -67, 1049, -69, -48, 1015, -42, -38, 985, -43, -43, 996, -81, -61, 1056, -49, -30, 978, -68, -85, 1011, -59, -41, 998, -39, -24, 1006, -54, -75, 999, -53, -81, 994, -77, -61, 995, -57, -42, 997],
	 [36, -147, 1051, 54, -169, 936, -8, -73, 982, -46, 14, 1028, -5, 39, 1065, -1, 20, 1072, -10, 26, 1034, -13, 52, 996, 24, 17, 1057, 6, 93, 1015, -1, -1, 1041, -7, -31, 1022, -49, -46, 1012, -100, -112, 1059, -35, -37, 861, -4, -68, 1138, -30, 6, 989, -37, -40, 972, -34, -69, 989, -33, -22, 1013, -47, -31, 1019, -3, -11, 998, -28, -38, 1001, -52, -28, 1026, -49, -69, 989, -26, -44, 1003, -9, -43, 1022, -27, -43, 1012, -34, -44, 1003, -27, -56, 1003],
	 [7, -180, 1067, 53, -174, 985, 72, -194, 989, 4, -159, 954, -50, -108, 918, -8, -27, 998, -44, 21, 1018, -7, -6, 972, 7, 79, 1015, 18, 33, 1053, -17, 38, 904, -19, -2, 971, -27, -15, 988, -34, -54, 1044, -58, -70, 1026, -65, -95, 1017, -50, -74, 1007, -39, -21, 1001, -30, -44, 1037, -22, -61, 980, -27, -50, 999, -29, -46, 1007, -10, -40, 988, 0, -52, 1009, 5, -49, 998, -3, -38, 982, -2, -30, 990, 12, -51, 988, 2, -40, 994, -2, -35, 979],
	 [47, -138, 1138, 92, -201, 1038, 25, -115, 1019, 9, -54, 1059, 8, 14, 1060, 8, -17, 1012, 36, 57, 1075, 32, 23, 1102, -13, 100, 1055, -14, 71, 1046, 35, 88, 1003, 12, 59, 965, -28, 0, 960, 12, 40, 1035, 51, -38, 973, -2, -91, 967, 33, -92, 1071, -5, -46, 1007, 12, -36, 1005, 43, -40, 1018, 17, -40, 988, 24, -43, 1040, 13, -61, 1000, 5, -46, 1001, 7, -33, 992, 19, -31, 1018, 19, -26, 1023, 4, -22, 1008, 1, -45, 1020, 29, -45, 1018],
	 [44, -117, 1065, 33, -192, 1057, 59, -118, 894, 15, -69, 934, -6, -80, 1005, -29, -19, 1007, -30, 9, 994, -67, -7, 1031, -20, 119, 976, -10, 72, 992, 68, 56, 978, 57, 33, 935, 16, 11, 910, 39, -22, 981, 46, -99, 1014, 38, -92, 965, -18, -119, 1036, -23, -105, 984, 11, -76, 1013, 0, -79, 985, 17, -74, 971, 0, -59, 966, -4, -32, 1029, 4, -37, 1031, 1, -20, 1026, -3, -45, 985, 5, -26, 1050, -1, -58, 988, 8, -46, 1004, -5, -66, 1022],
	 [36, -153, 1046, 80, -148, 987, 61, -141, 1014, 11, -83, 1016, -62, -14, 1001, -40, 4, 1044, -86, 69, 1034, -20, 114, 997, -7, 110, 981, -3, 121, 1052, 39, 76, 1042, 29, 13, 970, 16, -5, 997, 23, -28, 1054, -11, -96, 1029, -21, -110, 1014, -76, -77, 977, -89, -65, 977, -42, -94, 1002, -6, -34, 1003, 4, -53, 1036, -1, -30, 991, 1, -41, 1005, 14, -38, 1005, -15, -76, 1021, -4, -38, 989, 12, -41, 1016, 18, -65, 1026, 33, -42, 1009, 23, -51, 999],
	 [-8, -76, 1051, 36, -110, 1038, 19, -100, 1042, 5, -17, 1013, -1, 29, 1016, 27, 92, 1051, 10, 85, 1033, 0, 74, 1085, -5, 129, 943, 5, 102, 911, 27, 77, 948, 48, 14, 983, 35, -60, 971, 48, -93, 1027, 46, -78, 1010, 75, -125, 952, -45, -50, 1089, -39, -78, 1051, -11, -59, 996, 6, -36, 1014, 31, -39, 1032, 21, -51, 1017, 26, -62, 1033, 45, -52, 1017, 30, -57, 1027, 56, -1, 1060, 76, 1, 1029, 67, -29, 873, 28, 126, 966, -54, -46, 959],
	 [46, -130, 1123, 77, -121, 1001, 39, -38, 1003, 8, 0, 943, -6, -53, 1018, 27, -56, 999, 10, -12, 974, -22, 96, 1002, 30, 75, 998, 15, 52, 1017, 3, 15, 1032, -66, -98, 982, 12, -95, 887, 0, -56, 998, -28, -50, 987, 0, -84, 1015, -22, -34, 1023, -78, -46, 1024, -30, -30, 972, -43, -20, 1016, 0, -52, 964, -16, -63, 993, 4, -65, 946, 31, -43, 1000, 1, -14, 967, -18, 4, 1044, -57, -27, 1006, 2, -11, 974, -16, -48, 995, -1, -7, 1003],
	 [31, -45, 1008, 45, -198, 1065, 24, -86, 960, -49, -27, 914, -12, 49, 995, -13, 14, 1080, -6, -1, 1036, -35, 51, 981, -7, 110, 1016, -14, 91, 1071, -7, 83, 1010, 38, 58, 970, 0, 20, 1000, -10, -54, 886, -80, -45, 967, -80, -1, 938, -87, -40, 932, -81, -27, 1009, -40, -52, 1064, -61, -84, 1045, -25, -24, 1038, -13, -35, 1035, -22, -59, 1011, -51, -27, 992, -31, -29, 989, -29, -47, 978, -20, -23, 1010, -38, -29, 970, -17, -35, 1005, -22, -40, 993],
	 [16, -168, 1029, 58, -221, 995, 7, -66, 903, 61, -72, 1004, -1, -60, 1086, -6, -15, 944, -1, -37, 1008, -61, 24, 1007, 4, 64, 964, 29, 56, 1022, 61, 35, 990, 17, -23, 978, -31, -5, 943, -56, -9, 1047, -59, -72, 1048, -33, -74, 972, -30, -139, 986, -54, -124, 989, -64, -141, 986, -19, -72, 1012, -13, -48, 1005, -44, -60, 978, -38, -53, 1002, -27, -44, 986, -36, -62, 1004, -33, -50, 1013, -38, -78, 1027, -4, -82, 1003, -29, -75, 1011, 3, -45, 974],
	 [27, -64, 1014, 45, -137, 1025, 40, -47, 1033, 135, 95, 1058, 87, 121, 990, 74, 148, 1051, 49, 85, 1024, 2, 25, 989, 0, 77, 945, 32, 103, 1063, 67, 88, 966, 56, 36, 984, 2, -15, 917, 30, 0, 1007, 25, -43, 1085, 86, 3, 960, 4, -49, 1033, 9, -42, 1028, 5, -68, 1009, -19, -62, 1015, 4, -22, 1003, 2, -32, 984, 19, -32, 964, 21, -32, 1012, 5, -22, 989, 14, -26, 1003, 28, -15, 989, 20, -25, 992, 20, -44, 1001, 14, -20, 1003],
	 [4, -90, 1140, 71, -118, 1058, 69, -52, 950, 32, -16, 994, 51, -17, 987, 68, 43, 1011, 53, 47, 1041, 5, 34, 1049, 10, 47, 1021, 0, 86, 1008, 33, 49, 1011, 69, 32, 919, 6, 14, 1026, -37, 37, 1031, -25, 39, 1031, -26, -27, 1013, 0, -37, 1048, -24, -18, 1069, -3, -66, 1010, -24, -86, 1056, -13, -75, 1038, -1, -94, 991, -5, -70, 992, -3, -51, 1028, -47, -71, 1000, -48, -69, 990, -27, -62, 998, -24, -64, 983, -8, -64, 1047, -23, -53, 1048],
	 [28, -49, 1042, 41, -66, 1094, 45, -80, 990, 46, -11, 1021, -6, -6, 1016, -69, -41, 934, -52, -32, 1014, -38, -8, 930, -11, -2, 992, -1, 35, 1034, 33, 14, 1025, 45, 61, 1021, 79, 72, 949, -62, -43, 1009, 38, 1, 926, 24, -58, 1034, -15, -63, 1015, -4, -99, 1020, -28, -85, 1038, -14, -108, 1027, 0, -78, 961, -21, -74, 982, -22, -81, 976, 16, -44, 991, 15, -82, 1032, 12, -72, 977, -16, -48, 987, 3, -62, 1012, -3, -56, 1000, -25, -64, 1002],
	 [74, -176, 1024, 67, -74, 1060, 29, -30, 1018, -14, 21, 988, 17, -1, 1122, -16, 5, 1003, -73, -35, 977, -120, 43, 945, -76, 55, 947, -9, 8, 1047, 16, 83, 1047, 30, 10, 1034, 14, -19, 894, -63, -13, 851, -66, -78, 970, -51, -112, 943, -10, -98, 1005, -28, -109, 1073, -51, -75, 1004, -33, -74, 1008, -33, -68, 1018, -16, -62, 990, -27, -81, 995, -10, -104, 1021, 12, -76, 1028, -22, -73, 989, -6, -91, 1015, -20, -64, 991, -22, -82, 1039, 0, -64, 1009],
	 [-23, -101, 1062, 53, -106, 1068, 3, -35, 1047, -44, 22, 1042, 16, 66, 1039, -27, -27, 1029, -29, -3, 1027, 58, 39, 1031, 49, 87, 1024, 14, 77, 1080, 41, 56, 1055, 55, 16, 979, -20, -51, 949, -39, -155, 1035, 50, -71, 954, -31, -43, 902, 0, -72, 1015, -43, -54, 1023, -38, -74, 1024, -7, -85, 1034, 0, -70, 971, 10, -87, 985, -10, -58, 982, -11, -75, 1006, -3, -72, 979, -30, -88, 1034, -2, -68, 1011, 0, -90, 956, 9, -90, 998, -3, -102, 1000],
	 [78, -210, 1052, 37, -139, 953, 29, -100, 997, 24, -63, 995, 42, -103, 948, 5, -25, 1004, 21, -42, 1000, 2, 41, 1015, 6, 32, 1049, 14, 49, 981, 40, 66, 1066, -12, -21, 989, 0, -49, 984, -31, -69, 1025, -23, -88, 910, -20, -90, 1063, -7, -89, 961, -5, -60, 994, -6, -81, 1045, -8, -85, 1043, -8, -64, 975, -33, -98, 986, -18, -96, 982, 12, -78, 1007, 7, -74, 1016, 17, -85, 1015, 10, -76, 1006, 11, -63, 1014, 0, -75, 1020, -9, -68, 1015],
	 [49, -182, 1082, 50, -169, 1018, -18, -182, 907, 118, -62, 967, 34, -3, 1045, 36, 0, 987, -35, 24, 1038, 13, 2, 1012, -9, 71, 966, 24, 62, 1066, 88, 52, 992, 0, 5, 1006, -33, -9, 1012, 15, -42, 1041, -40, -81, 1018, 53, -123, 1009, 5, -90, 956, -66, -177, 1061, -26, -101, 958, -21, -49, 1023, -20, -54, 1015, -35, -63, 1033, -23, -44, 1002, -13, -34, 1002, -17, -77, 1007, -18, -75, 1044, -17, -51, 972, -14, -41, 1000, -9, -51, 998, -7, -50, 1019],
	 [108, -97, 1055, 47, -95, 1033, 59, -26, 1033, 60, 1, 1038, 42, -2, 1001, 46, 21, 1035, 16, 104, 1071, 0, 85, 1037, -44, 94, 1024, 36, 83, 967, 83, 77, 984, 76, 16, 1005, -91, -122, 1044, -71, -139, 952, -95, -110, 979, -30, -159, 1102, 1, -139, 975, -30, -104, 1050, -39, -95, 983, -5, -97, 991, -8, -83, 1018, -16, -59, 1006, -22, -73, 999, -36, -74, 999, -18, -71, 986, -23, -69, 1024, -22, -91, 973, -39, -81, 1003, -49, -78, 1007, -41, -87, 983],
	 [26, -212, 1016, 78, -156, 993, -30, -136, 845, -58, -77, 991, -23, -33, 960, -72, 39, 942, 24, 63, 1005, 30, 108, 999, 42, 82, 1064, 54, 33, 965, 1, -91, 948, -107, -99, 1084, 25, -98, 1024, -5, -106, 1006, -47, -175, 1073, -20, -110, 993, -53, -117, 1040, -36, -79, 959, 2, -70, 1031, -23, -108, 1005, -24, -88, 1014, -42, -92, 1024, -49, -92, 1036, -33, -67, 1020, -10, -78, 998, 4, -60, 1011, -23, -86, 999, -41, -98, 972, -28, -96, 1000, -35, -78, 1007],
	 [34, -176, 1066, 16, -95, 1024, 69, -30, 1057, 44, -151, 999, 0, -80, 1067, 14, -49, 1034, -96, -40, 999, -51, 35, 1033, 35, 48, 1067, 91, 13, 1036, 72, 37, 990, 66, 41, 985, 32, -25, 992, -17, -25, 962, 12, -158, 1046, 30, -147, 1026, 8, -170, 1003, -46, -121, 954, -5, -73, 1002, -3, -61, 1025, -30, -68, 1014, -26, -65, 998, -6, -81, 970, 24, -89, 999, 12, -60, 1025, -4, -76, 981, 0, -68, 1010, -3, -58, 1017, 8, -86, 1002, 17, -75, 987],
	 [64, -115, 1014, 75, -158, 1020, 77, -166, 994, -11, -47, 1027, 31, 12, 1001, 28, -41, 1056, 28, 24, 1006, 19, -4, 1027, 13, 61, 1072, 37, 39, 1005, 60, 31, 991, 63, 47, 1010, 17, 47, 972, 17, -24, 983, -46, -20, 953, -108, -98, 1185, -36, -103, 991, 21, -134, 996, -23, -91, 971, -1, -62, 1033, -2, -52, 1038, -1, -51, 1026, 5, -90, 1024, 13, -104, 890, -1, -75, 1020, -12, -51, 1017, -11, -50, 999, -4, -79, 1048, -23, -69, 1001, -12, -87, 1004],
	 [0, -22, 1113, 35, -61, 946, 55, -56, 1029, 62, -38, 1074, 15, -34, 1034, 0, -57, 1042, -8, 5, 993, -50, 7, 941, -22, 48, 1003, 8, 17, 1021, 68, 70, 953, 6, 60, 954, 26, -63, 1009, 14, -64, 876, -26, -100, 1030, -26, -197, 1017, 25, -162, 1014, -4, -102, 1006, 4, -48, 989, -10, -28, 1026, 4, -25, 1012, -4, -50, 1031, -6, -34, 1009, 1, -67, 1003, 13, -30, 1004, 38, -16, 1047, -204, 62, 954, -104, 68, 957, -141, 43, 1045, -155, 44, 999],
	 [4, -141, 1078, -26, -104, 977, 0, -142, 926, -66, -58, 991, -44, -25, 1091, -21, -16, 1059, -64, 18, 1080, -72, 28, 1027, -42, 13, 989, 13, 48, 1018, -19, 18, 1037, -32, -31, 991, -81, -96, 1055, -41, -60, 967, -27, -102, 977, -43, -67, 976, -63, -68, 952, -82, -110, 1021, -62, -69, 1015, -42, -90, 1001, -53, -81, 997, -32, -63, 1025, -29, -56, 971, -70, -64, 989, -21, -78, 999, -15, -84, 1009, -22, -50, 1013, -41, -62, 1012, -44, -67, 996, -22, -64, 994],
	 [20, -122, 1098, 15, -126, 1024, 10, -57, 990, -3, -42, 1004, -37, 25, 1007, 12, -27, 997, -41, -14, 996, -58, 57, 1027, -25, 115, 1020, 13, 60, 975, 1, 101, 1002, 17, 35, 987, -19, -79, 1010, -63, -140, 964, 18, -93, 1004, -26, -102, 973, -64, -89, 1009, -76, -71, 1003, -64, -69, 1008, -16, -39, 1016, -16, -40, 1040, -16, -67, 988, -45, -44, 981, 13, -73, 1016, -44, -65, 1001, -47, -53, 1008, -54, -29, 1002, -20, -43, 984, -26, -50, 1000, -9, -48, 1010],
	 [41, -86, 1089, 12, -107, 1087, -18, -82, 957, 26, -84, 980, 2, -70, 1013, 9, -12, 1003, -73, 38, 1055, -10, 18, 918, -13, 123, 970, 26, 69, 1115, 49, 71, 1023, 33, 43, 1023, -20, 65, 1034, -80, -64, 1025, -21, -54, 976, -51, -63, 994, -53, -71, 1048, -55, -66, 983, -55, -119, 990, -49, -45, 1007, -56, -44, 1019, -67, -46, 981, -48, -43, 997, -61, -50, 1001, -63, -38, 1018, -51, -50, 1010, -26, -29, 1010, -45, -47, 1028, -37, -40, 1004, -46, -39, 980],
	 [45, -125, 1079, 19, -170, 1090, -5, -33, 916, 27, -46, 936, -26, -52, 1073, 29, -25, 1039, -21, 46, 1064, -22, 87, 984, -50, 41, 959, -2, 100, 1049, 50, 63, 979, 38, -45, 917, 10, -64, 1140, -47, -58, 961, -60, -70, 1062, -9, -45, 955, -81, -102, 1063, -57, -92, 1028, -53, -85, 1043, -24, -57, 974, -25, -52, 1014, -24, -54, 989, -13, -66, 1014, -24, -84, 980, -41, -54, 990, -26, -50, 993, -22, -47, 1017, -1, -33, 1027, -29, -47, 992, -34, -50, 976]],
 "z": [[-71, -52, 968, -16, -22, 1034, 52, -42, 994, 5, -74, 971, -16, -71, 958, -41, -51, 1029, -58, -13, 989, -146, -26, 1031, -71, -62, 1021, -102, -129, 1010, -64, -89, 1011, -59, -74, 988, -43, 8, 1034, -62, 0, 1074, -57, -31, 991, -18, 15, 1061, 35, -11, 1034, 19, 7, 1009, 63, -40, 1045, 25, -14, 993, -22, -6, 988, -73, -23, 1013, -53, -34, 1001, -90, -65, 1039, -74, 0, 989, -68, -24, 1025, -51, -24, 984, -61, -51, 1003, -43, -46, 1015, -33, -42, 1022],
	 [87, -60, 1020, 92, -70, 993, 39, -71, 981, 8, -59, 975, 6, -76, 1034, -30, -53, 1005, -49, -58, 1049, -37, -50, 992, -109, -68, 999, -115, -122, 1009, -112, -161, 994, -89, -100, 983, -99, -63, 1029, -81, -45, 1029, -41, -17, 997, -45, -30, 993, -23, -26, 993, -20, -68, 1014, 17, -67, 1070, 66, -51, 1046, 40, -70, 1066, 25, -37, 1027, -24, -39, 1003, -68, -47, 1003, -70, -75, 986, -59, -98, 996, -52, -122, 988, -46, -96, 1013, -34, -105, 1010, -24, -108, 984],
	 [52, -45, 1039, 68, -36, 957, 22, -38, 974, -2, -47, 988, -32, -11, 1047, -29, -3, 1066, -75, -25, 1018, -120, -95, 993, -78, -56, 979, -106, -99, 1051, -86, -125, 1007, -45, -110, 973, -20, -36, 1060, -3, -37, 1063, 6, 5, 1015, -35, -59, 993, 13, -31, 1001, 38, -19, 1011, 33, -60, 968, 78, -48, 1031, 21, -56, 899, -55, -57, 976, -28, -113, 973, -10, -58, 1050, 9, -32, 1013, -33, 10, 1041, -35, -7, 1059, -4, -7, 991, -2, -28, 986, -11, -47, 1033],
	 [88, -13, 1047, 52, -27, 982, 25, 6, 970, -8, -49, 978, -49, -32, 989, -52, -88, 1007, -72, -70, 992, -87, -77, 985, -104, -67, 1007, -81, -86, 1017, -70, -122, 976, -67, -133, 934, -11, -19, 985, -44, -32, 948, -48, -26, 985, -2, -16, 936, 49, -10, 1078, 44, 9, 1022, 71, -8, 1055, 85, -11, 1005, 66, -68, 983, -10, -38, 992, -10, -48, 995, -29, -64, 994, -24, -33, 1024, -31, -29, 980, -51, -51, 1001, -30, -34, 1002, -30, -53, 1020, -26, -72, 1054],
	 [13, -66, 1068, 96, -32, 1007, 38, -23, 981, 1, -12, 1011, -49, -91, 959, -79, -18, 1012, -94, -77, 1038, -107, -78, 966, -133, -114, 984, -118, -100, 1013, -117, -106, 963, -57, -82, 1014, -97, -22, 1066, -52, 14, 974, -78, 4, 991, 5, 7, 1024, 0, -10, 1010, 12, -21, 1022, 39, 0, 1022, 34, -9, 994, 38, -34, 1014, -15, 70, 999, -23, -28, 1032, -52, -52, 1025, -87, -61, 1103, -89, -55, 1003, -82, -71, 992, -50, -55, 1030, -63, -33, 997, -29, -19, 1021],
	 [50, -47, 1030, 73, -67, 976, 35, -15, 1033, 18, -17, 1038, -64, -11, 1049, -95, -9, 1013, -139, -10, 967, -129, -54, 994, -161, -66, 1003, -122, -103, 1018, -104, -108, 959, 9, -63, 1048, -7, -73, 1009, -8, -22, 1001, -38, 26, 1016, 10, 0, 1036, 41, 8, 1021, 65, -28, 1033, 89, -27, 991, 81, -1, 999, 13, 8, 986, 15, -16, 1001, -12, -33, 1012, -13, -46, 1018, -46, -105, 964, -100, -61, 991, -97, -29, 966, -32, -48, 968, -40, -3, 1036, -47, -4, 1012],
	 [40, -80, 1040, 57, -63, 1016, 51, -63, 1040, 4, -22, 988, -39, -91, 1011, -108, -133, 939, -160, -128, 999, -136, -89, 989, -127, -97, 998, -95, -110, 1035, -28, -40, 1002, -44, -54, 1016, 4, -15, 988, -33, -114, 970, -21, 49, 967, 59, 15, 1006, 73, -13, 1063, 94, 0, 1044, 79, -29, 1031, 40, -52, 1026, 23, -37, 957, -8, -30, 1037, 12, -4, 1016, -11, 26, 1007, -33, -47, 1024, -54, -31, 1031, -26, -55, 986, 4, -47, 1039, 8, -47, 1007, -12, -44, 1015],
	 [40, -39, 1070, 55, -23, 1011, 56, -61, 986, 50, -86, 1020, 35, -95, 1005, -31, -94, 983, -57, -46, 978, -72, -63, 1032, -138, -74, 1030, -86, -90, 972, -75, -106, 992, -86, -113, 1002, -32, -39, 998, -29, -64, 966, 4, -41, 1013, -4, -11, 1047, 13, 12, 985, 50, -26, 998, 16, 17, 973, 61, -5, 1010, 73, -11, 1025, 68, -16, 978, 28, 19, 964, -8, -29, 958, -23, -54, 998, 1, -47, 1024, -71, -52, 1005, -66, -76, 957, -76, -34, 970, -14, -64, 1006],
	 [74, -7, 1050, 108, -32, 996, 27, -41, 1002, -25, 1, 1040, -61, -71, 945, -132, -45, 981, -128, -41, 983, -137, -64, 1012, -79, -82, 1024, -51, -129, 1038, -27, -62, 1043, -21, -99, 1019, -45, -60, 1003, -72, 26, 998, -18, -4, 959, 21, -27, 949, 37, -43, 1032, 45, -13, 1014, 56, 6, 982, 73, 5, 979, 35, -62, 1009, 33, 0, 1003, -8, -28, 1024, -50, -5, 996, -44, -27, 939, -56, -38, 1003, -14, -18, 1038, 11, -56, 998, -31, -43, 1003, -21, -61, 997],
	 [77, -80, 1092, 107, -48, 970, 69, -29, 1020, 43, -130, 991, 42, -32, 965, -26, 10, 1022, -42, -52, 963, -84, -108, 989, -69, -95, 1032, -63, -149, 975, -32, -102, 996, 13, -52, 1037, -20, -121, 1035, 56, -41, 993, 54, -29, 999, 9, -23, 990, 68, 15, 950, 88, 20, 1010, 75, 0, 1050, 105, -32, 1005, 63, -24, 1019, 52, -68, 998, 43, -49, 1004, -2, -70, 1016, -48, -61, 1014, -12, -45, 999, -38, -30, 1001, -20, -48, 1013, 1, -23, 1016, -22, -42, 1018],
	 [87, -130, 1056, 94, -90, 1038, 61, -67, 990, 23, -75, 974, -30, -86, 982, -100, -13, 1016, -43, -59, 974, -125, -83, 994, -74, -116, 1004, -64, -147, 984, -55, -76, 1017, -12, -18, 965, 13, 32, 1035, 52, 7, 991, 57, -12, 997, 79, 16, 1015, 94, 0, 989, 111, -42, 1019, 88, -38, 988, -29, -7, 1017, -39, 28, 1025, -21, -22, 975, -4, -40, 994, -44, -39, 1004, 4, -87, 1001, 22, -55, 1001, -1, -59, 1009, -16, -37, 1000, -2, -43, 1010, -3, -31, 1007],
	 [81, -63, 1052, 93, -50, 995, 31, -72, 1028, -2, -12, 1045, -94, -49, 1057, -108, -98, 1015, -94, -120, 999, -83, -148, 972, -59, -116, 1006, -13, -62, 1014, -41, -31, 1017, 25, -54, 970, 49, -68, 1034, 111, -24, 1015, 134, -68, 1009, 99, -70, 988, 32, -4, 1021, -15, 0, 1066, -44, 6, 1014, -43, -4, 1048, -54, -45, 1014, -77, -36, 991, -40, -59, 1034, 14, -46, 998, 10, -72, 995, -15, -55, 993, -28, -66, 988, -2, -46, 1014, -5, -49, 999, -4, -38, 1011],
	 [102, -99, 1060, 109, -53, 955, 86, -87, 1015, 24, -82, 979, -33, -37, 1003, -22, -8, 1004, -60, -20, 996, -119, -15, 1047, -99, -105, 990, -39, -79, 977, -13, -47, 981, 35, -5, 996, 63, 54, 1046, 33, 32, 1008, 19, -20, 975, 79, 26, 942, 100, 5, 1013, 78, -29, 995, 19, -79, 984, 16, -26, 961, 15, -105, 953, -36, -112, 961, -36, -72, 968, -45, -40, 991, -15, -14, 1028, -20, 4, 1031, 3, -10, 1036, 12, -33, 1032, 10, -27, 1004, 0, -42, 995],
	 [116, -46, 1066, 85, -44, 1007, 63, 12, 941, -69, -39, 988, -95, -35, 993, -106, -92, 1012, -127, -91, 1012, -134, -125, 961, -79, -139, 990, -69, -92, 972, -38, -38, 1045, -1, -29, 1005, 20, 15, 1066, 41, 53, 1004, 74, 29, 1036, 65, -1, 1070, 99, -54, 984, 79, -28, 1010, 39, -4, 1050, -35, -5, 1035, 22, -16, 1009, -98, 16, 1028, -105, -9, 1101, -69, -8, 1011, -62, -10, 1011, -11, -27, 982, -17, -43, 1035, -41, -17, 1023, -19, -17, 1037, -3, -11, 1030],
	 [35, -92, 1020, 94, -13, 1015, 31, -37, 1013, 34, -99, 937, -49, -74, 963, -66, -45, 986, -115, -41, 995, -129, -84, 1019, -97, -95, 1004, -76, -109, 988, -92, -110, 966, -33, -75, 994, -32, 29, 996, 0, -13, 985, 10, -57, 953, 57, 30, 952, 85, 13, 1032, 64, -10, 1033, 76, -21, 968, 11, -70, 994, -15, -74, 966, -17, -50, 962, -12, -40, 1035, -40, -52, 985, -42, -43, 981, -38, -35, 1007, -22, -35, 1036, -1, -39, 999, -7, -17, 993, -15, -3, 965],
	 [31, -94, 1042, 61, -33, 1007, 56, -20, 1054, 32, -26, 993, -36, -2, 1006, -85, -55, 1024, -136, -64, 968, -177, -47, 1016, -119, -106, 985, -104, -93, 1002, -15, -75, 998, 24, 3, 970, -25, -75, 965, -25, -26, 1028, 14, 24, 1005, 49, -9, 1027, 63, -28, 1046, 97, -63, 1003, 49, -82, 959, 19, -43, 969, 51, -62, 974, 12, -30, 1100, 11, -7, 1050, -46, -34, 1002, -52, -52, 1031, -18, -21, 988, -30, -30, 1011, -20, -43, 985, -13, -50, 1032, -10, -39, 982],
	 [100, -153, 989, 161, -112, 976, -11, -73, 968, -133, 13, 987, -162, -35, 1040, -157, -39, 1045, -100, -65, 987, -106, -131, 1017, -101, -117, 1011, -70, -82, 1057, 7, -36, 1000, 60, 7, 1068, 57, 6, 1025, 61, 41, 1047, 54, 0, 1051, 74, -17, 1011, 64, -11, 997, 36, 18, 953, -4, -22, 980, -16, -36, 1005, -31, -25, 1036, -24, -39, 1013, -56, -49, 991, -14, -83, 1019, -16, -58, 1003, 0, -70, 980, 0, -71, 986, -2, -62, 987, -14, -77, 989, 26, -57, 981],
	 [87, -103, 959, 192, -40, 1003, 137, -9, 1038, 43, -15, 990, -63, 11, 995, -89, -15, 995, -129, -56, 1042, -130, -83, 970, -121, -131, 1031, -119, -140, 961, -48, -59, 1049, -21, -39, 964, -8, -36, 915, 28, 19, 1001, 30, -8, 975, 31, -9, 1016, 49, 11, 1025, 69, -10, 1038, 60, -14, 946, -20, -65, 1008, -70, -81, 996, -62, -70, 945, -54, -39, 1004, -96, -56, 1032, -95, -52, 1000, -70, -56, 1026, -44, -78, 1016, -27, -58, 1020, -27, -53, 1058, -47, -60, 998],
	 [68, -50, 1049, 57, -19, 1016, -3, -8, 1012, -18, -17, 1037, -77, -17, 1011, -173, -18, 975, -162, -66, 967, -145, -94, 995, -115, -64, 1024, -75, -97, 1077, -12, -78, 999, -22, -17, 923, -74, 5, 1032, -24, -8, 967, 15, -55, 915, 35, -17, 1000, 62, -6, 1014, 63, -36, 972, -6, -5, 1014, -7, -35, 1004, -26, 8, 1074, -33, -5, 1045, -68, -32, 1000, -61, -90, 960, -69, -58, 1026, -38, -48, 984, -31, -45, 995, -37, -41, 1008, -48, -58, 996, -25, -56, 981],
	 [18, -118, 1045, 102, -96, 1071, 93, -32, 1023, 40, -22, 1005, -27, -46, 1006, -63, -39, 1006, -133, -63, 1019, -103, -63, 985, -119, -134, 974, -135, -146, 1004, -80, -101, 1042, -29, -37, 1031, -35, -45, 1053, 16, 9, 1030, 65, -18, 1010, 39, -55, 1005, 13, -83, 965, 76, 7, 985, 60, -77, 1029, 22, 8, 1001, 0, -40, 1015, -21, -59, 1038, -68, -34, 1045, -99, -59, 993, -81, -48, 1007, -72, -59, 1027, -63, -53, 1016, -46, -62, 1007, -40, -53, 987, -45, -62, 986],
	 [4, -13, 1051, 84, -37, 1012, 33, -29, 963, -14, -5, 998, -55, -67, 1028, -97, -31, 981, -118, -56, 1045, -125, -97, 957, -139, -142, 1003, -105, -127, 928, -79, -81, 988, -40, -32, 982, -21, 8, 1016, 9, 7, 1019, 19, 13, 1043, 36, -42, 1011, 36, -52, 997, 43, -72, 977, -14, -47, 996, -53, 20, 1022, -82, -4, 1018, -82, -15, 1002, -111, -43, 1050, -71, -61, 998, -50, -60, 1009, -24, -77, 991, -29, -69, 1008, -31, -65, 1016, -36, -39, 1033, -53, -53, 1032],
	 [59, -88, 1083, 103, -80, 964, 119, 22, 943, -3, -39, 971, -16, -74, 978, -39, -51, 968, -107, -38, 987, -110, -49, 1010, -86, -79, 1022, -77, -94, 1030, -22, -147, 962, -55, -70, 955, -39, -44, 983, -10, -12, 959, 14, 3, 1014, 60, 13, 1045, 110, -21, 1031, 77, -66, 999, 37, -25, 1006, 1, -39, 992, -38, 20, 976, -39, -52, 968, -84, -4, 993, -48, -12, 992, -47, -13, 1011, -57, -44, 1049, -34, -40, 1021, -43, -63, 1032, -27, -62, 965, -17, -62, 1006],
	 [67, -106, 1046, 139, -117, 977, 47, -13, 1007, -4, -21, 1078, -34, -38, 1065, -73, -47, 982, -102, -78, 986, -120, -105, 1015, -107, -155, 1015, -81, -138, 983, -31, -142, 983, -40, -30, 1046, 8, -32, 1052, 68, -31, 1048, 15, -35, 1013, 59, -1, 998, 102, -44, 988, 76, -57, 995, 42, -91, 982, 26, -59, 1027, 5, -40, 999, -2, -43, 1015, -42, -13, 1006, -46, -58, 1030, -32, -17, 1015, -29, -92, 1051, -23, -46, 1008, 19, -94, 993, 5, -73, 1003, -1, -83, 993],
	 [106, -136, 1058, 181, -33, 974, 109, -65, 1015, 66, -72, 1029, 27, -65, 988, -42, -118, 957, -70, -83, 988, -87, -87, 1014, -95, -110, 1006, -67, -110, 991, -53, -129, 966, -8, -99, 991, 1, 5, 1072, 19, -37, 986, 12, -22, 975, 42, -25, 898, 1, 7, 1028, 102, -44, 1014, 77, -48, 976, 51, -30, 1015, 16, -55, 1029, 1, -66, 999, -39, -108, 1009, -37, -135, 974, -81, -111, 954, -22, -122, 1014, 7, -109, 971, -10, -103, 1032, -24, -72, 1027, -20, -94, 1014],
	 [31, -115, 1033, 81, -112, 1039, 95, -81, 1045, 98, -50, 969, -5, -74, 990, -9, -82, 1024, -48, -113, 989, -114, -133, 954, -149, -172, 1009, -83, -179, 960, -7, -127, 1006, 5, -36, 934, -14, -37, 1037, 17, -83, 1025, 70, -26, 1022, 70, 0, 1047, 107, -20, 1046, 114, -22, 1062, 65, -1, 1037, 51, -5, 962, 27, -43, 1025, -15, -65, 972, -33, -123, 967, -76, -164, 979, -17, -96, 1006, -13, -107, 980, -18, -84, 1008, 5, -94, 970, -15, -54, 1024, -1, -106, 987],
	 [133, -81, 979, 115, -122, 980, 46, -143, 928, 3, -87, 957, -44, -83, 1073, -145, -128, 1059, -119, -107, 960, -72, -112, 1017, -50, -136, 990, 16, -91, 1052, -23, -177, 909, -37, -102, 951, 46, -24, 968, 29, 1, 1044, 107, 14, 1002, 92, -38, 1040, 110, -50, 1004, 80, -70, 996, 12, -48, 989, -15, -25, 1034, 8, -48, 1069, 3, -15, 1056, -57, -71, 972, -59, -80, 975, -84, -68, 1002, -28, -121, 976, -18, -96, 986, -23, -71, 986, -20, -53, 998, -33, -111, 1026],
	 [73, -90, 1062, 92, -73, 999, 58, -92, 989, -31, -106, 972, -95, -143, 971, -90, -118, 893, -170, -116, 1016, -148, -149, 1003, -106, -151, 1012, -86, -113, 1014, -41, -80, 976, -2, -36, 967, 54, -11, 969, 33, -8, 978, 67, 5, 968, 92, -25, 1036, 54, -71, 1016, 32, -10, 958, -48, -22, 949, -41, -108, 980, -50, -33, 982, -80, -52, 1010, -69, -36, 979, -47, -61, 1058, -33, -31, 1001, -32, -39, 1007, -20, -58, 999, -10, -56, 988, -14, -58, 984, -18, -73, 997],
	 [22, -132, 1083, 92, -104, 1010, 45, -78, 1062, -7, -48, 1006, -42, -105, 1041, -123, 11, 1003, -194, -24, 1017, -230, -117, 1024, -141, -164, 955, -92, -85, 972, -50, -83, 1000, 28, -8, 1006, 50, 22, 1074, 52, -30, 972, 45, -57, 1002, 76, -39, 995, 107, -16, 1006, 73, -96, 1002, 40, -105, 929, -9, -77, 945, -27, 2, 1081, -24, -51, 972, -66, -71, 981, -80, -48, 1011, -36, -38, 982, -44, -41, 1040, -24, -26, 1026, -14, -20, 1019, -24, -45, 1028, -39, -41, 1013],
	 [91, -92, 1083, 81, -59, 942, -4, -81, 974, -60, -70, 985, -60, -87, 914, -141, -97, 993, -172, -34, 1063, -165, -123, 999, -122, -136, 1007, -64, -118, 1021, -53, -55, 1005, 2, 9, 1009, 7, -10, 1035, 35, -5, 1023, 10, -11, 1027, 61, -11, 1046, 90, -46, 1009, 61, -46, 988, -12, -25, 957, -34, -37, 943, -39, -41, 1041, -35, -41, 996, -79, -33, 1022, -49, -41, 1002, -20, -11, 977, -20, 4, 1038, -7, -18, 1001, -17, -44, 1035, -13, -20, 984, -2, -19, 1016],
	 [24, -137, 1015, 105, -73, 1011, 53, -31, 945, -35, -35, 972, -65, -27, 985, -97, -66, 1035, -123, -71, 1002, -146, -77, 949, -142, -120, 1011, -48, -116, 985, -20, -93, 987, 29, -66, 921, -11, -65, 1003, 51, 23, 973, 62, 27, 967, 77, -17, 1044, 75, -43, 1060, 41, -61, 984, 13, -57, 1011, 4, -67, 960, 0, -62, 1046, -86, -86, 1016, -91, -94, 1015, -75, -47, 980, -58, -47, 999, -43, -61, 980, -23, -66, 1017, -6, -35, 1013, -12, -66, 962, -52, -68, 992],
	 [76, -107, 1007, 112, -43, 1018, 0, -66, 1049, -20, -31, 1038, -28, -59, 1054, -164, -129, 964, -199, -106, 1002, -117, -118, 980, -106, -145, 989, -61, -123, 974, -43, -149, 982, -9, -61, 1031, -16, -71, 1036, -55, 0, 1036, 3, -14, 920, 29, -25, 976, 88, 0, 1015, 97, -35, 993, 64, -46, 981, 3, -47, 970, -42, -48, 959, -32, -33, 984, -24, -61, 1004, 3, 0, 1053, -23, -35, 1042, -23, -26, 1045, -24, -56, 1006, -10, -62, 1004, -1, -45, 1018, -17, -61, 982],
	 [107, -90, 1065, 114, -63, 997, 69, -98, 1034, -2, 38, 998, -82, -89, 1036, -128, -67, 1020, -148, -127, 993, -106, -127, 1039, -65, -120, 1007, 1, -79, 978, 18, -41, 1009, 36, -64, 1001, 72, -33, 971, 75, 26, 972, 62, -16, 989, 106, -12, 1025, 93, -102, 987, 44, -89, 900, -42, -116, 1103, -7, -95, 958, -31, -40, 992, -52, -100, 1002, -54, -99, 1017, -11, -87, 1014, -15, -94, 1003, 13, -75, 968, 1, -73, 1042, 29, -65, 1018, 9, -97, 989, 4, -69, 978],
	 [134, -133, 1008, 131, -63, 1029, 112, -46, 980, 48, -84, 975, 17, -47, 1057, -18, -112, 979, -55, -15, 973, -41, -85, 1035, -71, -64, 996, -66, -102, 1035, -31, -79, 1032, 1, -8, 1000, 33, -11, 1009, 58, -49, 1049, 39, -10, 1005, 69, 45, 1026, 150, -16, 1043, 156, -30, 1069, 124, -25, 965, 68, -9, 983, -2, -54, 959, -15, 12, 1029, -7, -39, 986, -31, -48, 1044, -17, -55, 1048, 2, -54, 981, -25, -72, 1001, -1, -60, 977, 0, -57, 1021, -18, -61, 1011],
	 [93, -117, 1066, 142, -112, 1000, 77, -79, 992, 23, -65, 990, -7, -67, 995, 0, -30, 1010, -61, -37, 1024, -126, -107, 1032, -64, -117, 998, -54, -123, 990, -11, -50, 976, -18, -14, 977, 28, -20, 1008, 78, -8, 1124, 92, -14, 1048, 110, 0, 919, 106, -2, 1080, 163, -12, 1047, 89, 18, 1034, 13, 6, 981, -52, 17, 1057, -28, 5, 948, -83, -18, 1014, -94, 0, 1034, -23, -41, 971, -34, -43, 1002, -25, -59, 993, -17, -62, 1034, -7, -66, 1004, -8, -52, 1009],
	 [156, -92, 1045, 129, -69, 1020, 64, -32, 1009, 14, -19, 992, -10, -50, 1042, -66, -58, 957, -107, -80, 991, -137, -68, 1018, -122, -106, 1036, -47, -115, 977, -53, -107, 925, 2, -9, 1020, 30, 43, 1080, 61, 21, 1051, 87, 33, 1026, 68, 35, 1018, 98, -30, 1040, 50, -42, 954, 32, -39, 979, -16, -42, 1001, -9, -47, 992, -24, -73, 951, -103, -51, 998, -73, -56, 1014, -48, -40, 1024, -17, -59, 1013, -16, -77, 994, -5, -71, 1016, -11, -89, 1009, -26, -85, 1015],
	 [80, -82, 1057, 126, 2, 1040, 79, -26, 1045, 4, 0, 991, -60, -51, 1024, -81, -97, 941, -139, -64, 960, -164, -78, 1042, -121, -151, 1043, -65, -179, 987, -86, -134, 995, -19, -50, 1041, 34, 0, 1024, 35, -28, 1004, 34, -56, 955, 32, -47, 975, 101, -48, 1021, 59, -17, 995, 4, -6, 1000, -19, -92, 946, -68, -51, 1006, -53, 5, 1008, -97, -97, 1039, -34, -59, 1008, -37, -86, 1025, -33, -56, 1000, -5, -45, 1033, -14, -69, 1003, -24, -89, 984, -33, -57, 1015],
	 [75, -74, 1036, 93, -60, 1030, 92, -18, 1092, 69, 0, 984, -54, -80, 985, -115, -108, 963, -133, -120, 1013, -130, -131, 983, -125, -128, 1015, -101, -105, 1058, -34, -111, 970, -13, -99, 998, -27, -49, 996, 78, -41, 979, 63, -8, 1014, 73, -56, 1030, 90, -38, 1049, 59, -75, 983, 11, -76, 1048, -22, -155, 969, -34, -121, 1026, -59, -38, 1012, -72, -60, 1030, -42, -70, 996, -39, -69, 1021, 0, -72, 1022, 4, -74, 990, -8, -68, 1012, -3, -77, 983, -17, -57, 1013],
	 [122, -105, 1026, 132, -86, 928, 42, -100, 1034, -6, -73, 1035, -25, -17, 1010, -140, -94, 1021, -167, -130, 1010, -127, -93, 998, -69, -111, 981, -28, -113, 1026, -2, -57, 1043, -8, -73, 1018, 40, -17, 999, 67, -25, 1010, 136, 9, 1019, 132, -42, 1061, 82, -84, 975, 8, -43, 1002, -38, 39, 1054, -35, -18, 982, -85, -35, 991, -72, -98, 969, -80, -82, 974, -44, -39, 1052, -25, -42, 977, 21, -62, 1012, -10, -58, 975, -10, -47, 1023, -29, -49, 1016, 1, -65, 975],
	 [137, -147, 986, 129, -49, 1009, 73, -17, 1064, 10, -55, 986, -59, -36, 947, -114, -40, 995, -128, -88, 1040, -73, -149, 973, -102, -171, 1006, -25, -91, 1038, -14, -66, 1042, 22, -2, 999, -4, -43, 960, 76, -12, 971, 131, 4, 950, 181, 0, 1021, 116, -31, 993, 66, -30, 1034, 6, -43, 961, 13, -60, 1058, -18, -43, 1014, -71, -88, 1048, 0, -48, 1004, -17, -47, 1028, -38, -72, 1000, -12, -67, 982, -3, -56, 1000, 8, -49, 1001, -8, -63, 1021, 12, -71, 1015],
	 [155, -45, 1062, 150, -45, 1043, 75, -6, 1054, 25, -19, 1023, -23, -49, 1021, -92, -61, 1028, -107, -72, 1026, -156, -46, 1051, -99, -114, 1011, -81, -136, 945, 7, -109, 917, -14, -79, 968, 64, -18, 968, 68, 13, 1071, 112, 47, 962, 131, 37, 1021, 99, -15, 1043, 80, 5, 977, 36, -7, 1065, -35, -22, 1051, -64, -83, 994, -33, -119, 999, 23, -47, 979, -25, -68, 1005, -46, -52, 1022, -24, -31, 996, 0, -45, 1004, -2, -21, 1026, -3, -43, 986, 20, -15, 997],
	 [-2, -15, 1102, 32, -19, 1046, 83, 3, 1016, 57, -34, 1049, 56, -3, 931, 5, -76, 946, 28, -26, 982, -13, -4, 1018, -61, -24, 1036, -56, -54, 1043, -34, -50, 1044, 21, -48, 995, 27, -55, 1005, 45, -6, 1013, 39, -39, 973, 50, -5, 949, 122, 8, 931, 141, 21, 951, 143, -8, 965, 123, -10, 967, 72, -33, 1006, 28, -52, 986, 3, -112, 1013, 21, -76, 1013, -35, -95, 1025, 4, -61, 1003, 3, -82, 1009, 9, -54, 1029, 38, -80, 1023, 0, -68, 1027],
	 [52, -62, 1092, 88, -16, 1050, 69, -41, 979, 56, -32, 1031, 2, -84, 1019, -79, -91, 969, -150, -125, 1004, -76, -138, 1029, -10, -139, 1002, 24, -56, 1011, 16, -31, 964, 14, -35, 1009, 27, 16, 981, 97, 8, 1011, 123, 11, 1073, 156, -48, 1087, 97, -55, 986, 47, -49, 981, 56, -53, 1020, 14, -66, 1061, -9, -66, 973, -41, -135, 999, -9, -91, 983, -11, -112, 1031, 2, -94, 1002, 18, -77, 1000, 27, -46, 988, -2, -82, 1028, 1, -72, 964, 5, -86, 982],
	 [117, -46, 1079, 130, -81, 990, 31, -134, 996, 37, -127, 922, -40, -119, 1062, -72, -138, 1017, -63, -128, 1017, -34, -149, 982, -11, -154, 956, 6, -144, 893, 0, -26, 954, 59, 10, 989, 79, 4, 1040, 143, 54, 1021, 170, 35, 1042, 59, -57, 985, 51, 22, 966, -27, -64, 992, -57, -136, 948, -64, -64, 999, -70, -64, 992, -50, -107, 1007, -27, -59, 1003, -14, -76, 1020, 5, -49, 1030, 5, -83, 1024, 2, -71, 1004, -27, -59, 1007, -11, -82, 997, -23, -78, 1023],
	 [152, -96, 1062, 122, -147, 979, 145, 23, 1022, 53, -15, 1034, 0, -36, 956, -102, -38, 1031, -135, -126, 1058, -60, -147, 1000, -12, -99, 966, 46, 16, 972, 89, 30, 995, 83, 5, 977, -1, -31, 993, 114, 19, 980, 131, 54, 1016, 167, 31, 1071, 151, 4, 959, 67, 7, 991, 44, -28, 1019, -52, -66, 931, -87, -144, 945, -39, -31, 979, 16, -59, 1031, 43, -87, 1005, 9, -80, 975, 32, -37, 988, 44, -54, 1038, 16, -85, 1020, 8, -94, 1013, 43, -66, 1009],
	 [87, -44, 1081, 128, -5, 1001, 100, -53, 1033, 36, -87, 944, -35, -156, 926, -111, -142, 971, -84, -91, 1041, -52, -65, 1049, -19, -128, 982, 12, -51, 967, 67, -73, 1009, 70, 4, 992, 67, 6, 975, 86, -7, 925, 109, 20, 1070, 126, -34, 1035, 105, -28, 966, 82, 48, 1012, 58, -2, 1034, 35, -41, 1006, -38, -61, 940, -91, -84, 1005, -90, -41, 1043, -11, -34, 1009, 4, -16, 1042, 24, -24, 1035, 15, -46, 997, 72, -87, 911, 123, -13, 1042, 90, -27, 1006],
	 [44, -64, 1048, 81, -20, 1019, 77, -16, 1090, 27, -45, 991, -8, -65, 1014, -85, -37, 1012, -147, -94, 1015, -129, -119, 1037, -91, -146, 977, -61, -15, 1049, 0, -60, 973, 51, -60, 985, 41, 23, 1027, 15, -47, 1057, 18, -32, 1064, 45, -39, 972, 34, -108, 912, -3, -40, 952, -22, -68, 1003, -30, -79, 1000, -57, -80, 987, -97, -86, 1001, -53, -86, 976, -27, -89, 985, -19, -86, 1006, 7, -64, 1032, 0, -43, 1006, -2, -42, 978, -12, -64, 993, 8, -88, 1030],
	 [67, -112, 1087, 68, -88, 1008, 65, -98, 984, -4, -92, 942, -55, -64, 950, -109, -60, 1051, -96, -112, 1049, -123, -167, 1036, -34, -208, 963, -39, -145, 827, 4, -109, 868, 56, -104, 938, 69, -84, 971, 54, -54, 1000, 74, -9, 984, 112, -48, 965, 54, -107, 1004, 13, -48, 978, -27, -31, 1053, -61, -73, 989, -80, -71, 976, -75, -74, 1010, -69, -87, 997, -34, -105, 975, -23, -111, 1090, -11, -106, 953, -20, -85, 1006, -33, -120, 969, -22, -108, 999, -9, -100, 990],
	 [50, -73, 1013, 107, -30, 1042, 60, -96, 995, 14, -49, 1019, -81, -53, 1057, -84, -83, 983, -124, -105, 982, -133, -121, 1005, -116, -146, 993, -57, -118, 1003, -37, -121, 927, 17, 18, 926, -10, -21, 985, 32, 36, 1022, 82, 0, 996, 111, 23, 1047, 83, -63, 1089, 21, -66, 932, -10, -75, 1025, -79, -123, 1025, -81, -116, 1006, -48, -138, 955, -55, -131, 1043, -24, -107, 998, 5, -74, 937, 11, -106, 1007, 13, -55, 1002, 4, -72, 1007, 16, -98, 1030, 20, -78, 1005],
	 [88, -54, 1042, 152, -6, 1027, 84, -95, 991, 54, -81, 1005, 22, -108, 1035, -16, -135, 1032, -89, -80, 950, -110, -96, 1015, -90, -164, 1033, -89, -80, 1139, 39, -89, 998, 4, -20, 987, 57, -14, 1032, 67, 11, 953, 65, 28, 962, 65, -29, 983, 75, -41, 1053, 51, -74, 966, 42, -31, 966, -4, -30, 986, -75, -14, 1007, -76, -56, 1021, -50, -64, 1034, -36, -86, 993, -23, -76, 1005, -27, -82, 1001, -42, -76, 956, -32, -63, 997, -42, -98, 951, -30, -63, 997],
	 [83, -47, 1094, 96, -37, 1024, 66, 3, 1054, 4, -28, 1020, -46, -49, 1003, -116, -68, 1013, -142, -62, 1014, -96, -108, 1005, -81, -128, 986, -44, -96, 988, -43, -90, 985, -5, -98, 1038, 41, -21, 991, 56, -46, 972, 48, -55, 936, 58, -27, 983, 103, -18, 979, 87, -31, 1028, 93, -60, 1046, 57, -46, 1041, 20, -95, 1025, -62, -77, 1060, -36, -113, 996, -21, -70, 992, -6, -71, 981, 1, -67, 996, 15, -92, 1016, 10, -34, 1005, 37, -78, 931, 76, -72, 1144]]}